{"Epoch": 841, "TotalNEpisodes": 0, "TotalNSamples": 0.0, "Entropy": 1.4534142017364502, "Perplexity": 4.2776947021484375, "AveragePolicyProb[0]": 0.14643514156341553, "AveragePolicyProb[1]": 0.15669891238212585, "AveragePolicyProb[2]": 0.2974146008491516, "AveragePolicyProb[3]": 0.10278160870075226, "AveragePolicyProb[4]": 0.29514962434768677, "AveragePolicyProb[5]": 0.0015186457894742489, "|VfPred|": 2.865023374557495, "|VfTarget|": 2.844090700149536, "VfLoss": 0.041828081011772156}
{"Epoch": 842, "AverageReturn": -20.875, "MinReturn": -21.0, "MaxReturn": -20.0, "StdReturn": 0.33071891388307384, "AverageEpisodeLength": 3110.375, "MinEpisodeLength": 3056.0, "MaxEpisodeLength": 3615.0, "StdEpisodeLength": 150.39442933499896, "TotalNEpisodes": 16, "TotalNSamples": 49766.0, "Entropy": 1.3417599201202393, "Perplexity": 3.825770616531372, "AveragePolicyProb[0]": 0.20445191860198975, "AveragePolicyProb[1]": 0.12762509286403656, "AveragePolicyProb[2]": 0.30901578068733215, "AveragePolicyProb[3]": 0.21214117109775543, "AveragePolicyProb[4]": 0.13338594138622284, "AveragePolicyProb[5]": 0.013382907956838608, "|VfPred|": 2.1692070960998535, "|VfTarget|": 2.1340291500091553, "VfLoss": 0.12987099587917328}
{"Epoch": 843, "AverageReturn": -20.633333333333333, "MinReturn": -21.0, "MaxReturn": -20.0, "StdReturn": 0.48189440982669873, "AverageEpisodeLength": 3390.5666666666666, "MinEpisodeLength": 3056.0, "MaxEpisodeLength": 4332.0, "StdEpisodeLength": 381.4805091861036, "TotalNEpisodes": 30, "TotalNSamples": 101717.0, "Entropy": 1.4431685209274292, "Perplexity": 4.234090328216553, "AveragePolicyProb[0]": 0.16960103809833527, "AveragePolicyProb[1]": 0.13236229121685028, "AveragePolicyProb[2]": 0.17308072745800018, "AveragePolicyProb[3]": 0.2996138036251068, "AveragePolicyProb[4]": 0.19026152789592743, "AveragePolicyProb[5]": 0.035080235451459885, "|VfPred|": 1.791538953781128, "|VfTarget|": 1.7738622426986694, "VfLoss": 0.08635617792606354}
{"Epoch": 844, "AverageReturn": -20.40625, "MinReturn": -21.0, "MaxReturn": -17.0, "StdReturn": 0.9955957701296244, "AverageEpisodeLength": 3491.15625, "MinEpisodeLength": 3056.0, "MaxEpisodeLength": 5312.0, "StdEpisodeLength": 542.4849139247445, "TotalNEpisodes": 32, "TotalNSamples": 111717.0, "Entropy": 1.507204532623291, "Perplexity": 4.514094352722168, "AveragePolicyProb[0]": 0.17771710455417633, "AveragePolicyProb[1]": 0.1830471307039261, "AveragePolicyProb[2]": 0.10481145232915878, "AveragePolicyProb[3]": 0.26983487606048584, "AveragePolicyProb[4]": 0.2043137401342392, "AveragePolicyProb[5]": 0.06027562543749809, "|VfPred|": 0.9857738614082336, "|VfTarget|": 1.0055183172225952, "VfLoss": 0.11669839918613434}
{"Epoch": 845, "AverageReturn": -20.40625, "MinReturn": -21.0, "MaxReturn": -17.0, "StdReturn": 0.9955957701296244, "AverageEpisodeLength": 3491.15625, "MinEpisodeLength": 3056.0, "MaxEpisodeLength": 5312.0, "StdEpisodeLength": 542.4849139247445, "TotalNEpisodes": 32, "TotalNSamples": 111717.0, "Entropy": 1.5898433923721313, "Perplexity": 4.902980804443359, "AveragePolicyProb[0]": 0.1539492905139923, "AveragePolicyProb[1]": 0.1780063509941101, "AveragePolicyProb[2]": 0.10220300406217575, "AveragePolicyProb[3]": 0.22019517421722412, "AveragePolicyProb[4]": 0.16342350840568542, "AveragePolicyProb[5]": 0.18222154676914215, "|VfPred|": 0.6959155201911926, "|VfTarget|": 0.7366216778755188, "VfLoss": 0.06525448709726334}
