{"Iteration": 0, "ExpectedImprovement": 0.0060147386975586414, "ActualImprovement": 0.00481147738173604, "ImprovementRatio": 0.7999478653476667, "MeanKL": 0.00838756188750267, "Entropy": 1.4189382791519165, "Perplexity": 4.132730484008789, "AveragePolicyStd": 1.0, "AveragePolicyStd[0]": 1.0, "AverageReturn": -1125.3833672603125, "MinReturn": -1816.024281347436, "MaxReturn": -843.094290960602, "StdReturn": 189.12951478507614, "AverageEpisodeLength": 200.0, "MinEpisodeLength": 200.0, "MaxEpisodeLength": 200.0, "StdEpisodeLength": 0.0, "TotalNEpisodes": 48, "TotalNSamples": 9600.0, "ExplainedVariance": -0.0010831812994234191}
{"Iteration": 1, "ExpectedImprovement": 0.004278802871704102, "ActualImprovement": 0.005283957605063838, "ImprovementRatio": 1.2349149431507735, "MeanKL": 0.006631812080740929, "Entropy": 1.4202097654342651, "Perplexity": 4.137988567352295, "AveragePolicyStd": 1.0012719631195068, "AveragePolicyStd[0]": 1.0012719631195068, "AverageReturn": -1159.625343832757, "MinReturn": -1816.024281347436, "MaxReturn": -843.094290960602, "StdReturn": 186.45481884557972, "AverageEpisodeLength": 200.0, "MinEpisodeLength": 200.0, "MaxEpisodeLength": 200.0, "StdEpisodeLength": 0.0, "TotalNEpisodes": 96, "TotalNSamples": 19200.0, "ExplainedVariance": 0.09933437434208692}
{"Iteration": 2, "ExpectedImprovement": 0.007222660351544619, "ActualImprovement": 0.00789437536150217, "ImprovementRatio": 1.0930010518650377, "MeanKL": 0.009916774928569794, "Entropy": 1.464284896850586, "Perplexity": 4.32444953918457, "AveragePolicyStd": 1.0463906526565552, "AveragePolicyStd[0]": 1.0463906526565552, "AverageReturn": -1160.3946878494758, "MinReturn": -1618.47316980075, "MaxReturn": -893.1221270951099, "StdReturn": 166.12357925896868, "AverageEpisodeLength": 200.0, "MinEpisodeLength": 200.0, "MaxEpisodeLength": 200.0, "StdEpisodeLength": 0.0, "TotalNEpisodes": 144, "TotalNSamples": 28800.0, "ExplainedVariance": 0.20071414799345277}
{"Iteration": 3, "ExpectedImprovement": 0.004453746601939201, "ActualImprovement": 0.004037890583276749, "ImprovementRatio": 0.906627822408804, "MeanKL": 0.00946136936545372, "Entropy": 1.5089396238327026, "Perplexity": 4.521933078765869, "AveragePolicyStd": 1.0941753387451172, "AveragePolicyStd[0]": 1.0941753387451172, "AverageReturn": -1102.7383124321696, "MinReturn": -1609.8594888291343, "MaxReturn": -757.5634979603399, "StdReturn": 167.39785161975607, "AverageEpisodeLength": 200.0, "MinEpisodeLength": 200.0, "MaxEpisodeLength": 200.0, "StdEpisodeLength": 0.0, "TotalNEpisodes": 192, "TotalNSamples": 38400.0, "ExplainedVariance": 0.29394399899859847}
{"Iteration": 4, "ExpectedImprovement": 0.005097883939743042, "ActualImprovement": 0.005188574083149433, "ImprovementRatio": 1.0177897622775152, "MeanKL": 0.0073328702710568905, "Entropy": 1.5208340883255005, "Perplexity": 4.576040267944336, "AveragePolicyStd": 1.1072674989700317, "AveragePolicyStd[0]": 1.1072674989700317, "AverageReturn": -1056.8284347899516, "MinReturn": -1609.8594888291343, "MaxReturn": -733.5819327541728, "StdReturn": 156.33122010151698, "AverageEpisodeLength": 200.0, "MinEpisodeLength": 200.0, "MaxEpisodeLength": 200.0, "StdEpisodeLength": 0.0, "TotalNEpisodes": 240, "TotalNSamples": 48000.0, "ExplainedVariance": 0.3258457058208578}
{"Iteration": 5, "ExpectedImprovement": 0.005519450642168522, "ActualImprovement": 0.005050011910498142, "ImprovementRatio": 0.9149482870480126, "MeanKL": 0.009114979766309261, "Entropy": 1.5064011812210083, "Perplexity": 4.51046895980835, "AveragePolicyStd": 1.0914019346237183, "AveragePolicyStd[0]": 1.0914019346237183, "AverageReturn": -1032.491913449391, "MinReturn": -1366.8805103438735, "MaxReturn": -733.5819327541728, "StdReturn": 135.89553739471162, "AverageEpisodeLength": 200.0, "MinEpisodeLength": 200.0, "MaxEpisodeLength": 200.0, "StdEpisodeLength": 0.0, "TotalNEpisodes": 288, "TotalNSamples": 57600.0, "ExplainedVariance": 0.3976226699351747}
{"Iteration": 6, "ExpectedImprovement": 0.008496399968862534, "ActualImprovement": 0.007734405242652009, "ImprovementRatio": 0.9103155773029672, "MeanKL": 0.009630071930587292, "Entropy": 1.5361862182617188, "Perplexity": 4.646834373474121, "AveragePolicyStd": 1.1243979930877686, "AveragePolicyStd[0]": 1.1243979930877686, "AverageReturn": -1041.110853746428, "MinReturn": -1352.9306898883667, "MaxReturn": -746.6827905755192, "StdReturn": 128.11097730265794, "AverageEpisodeLength": 200.0, "MinEpisodeLength": 200.0, "MaxEpisodeLength": 200.0, "StdEpisodeLength": 0.0, "TotalNEpisodes": 336, "TotalNSamples": 67200.0, "ExplainedVariance": 0.4177068657648636}
{"Iteration": 7, "ExpectedImprovement": 0.007797082886099815, "ActualImprovement": 0.007970438596606177, "ImprovementRatio": 1.0222334061390332, "MeanKL": 0.009927281178534031, "Entropy": 1.5504041910171509, "Perplexity": 4.713375091552734, "AveragePolicyStd": 1.1404989957809448, "AveragePolicyStd[0]": 1.1404989957809448, "AverageReturn": -1023.0254706451113, "MinReturn": -1332.7154486560157, "MaxReturn": -764.1134807067962, "StdReturn": 123.93385245913369, "AverageEpisodeLength": 200.0, "MinEpisodeLength": 200.0, "MaxEpisodeLength": 200.0, "StdEpisodeLength": 0.0, "TotalNEpisodes": 400, "TotalNSamples": 80000.0, "ExplainedVariance": 0.5744041289484412}
{"Iteration": 8, "ExpectedImprovement": 0.007624237332493067, "ActualImprovement": 0.006451154206693399, "ImprovementRatio": 0.8461376430662504, "MeanKL": 0.007603237871080637, "Entropy": 1.5512349605560303, "Perplexity": 4.717292308807373, "AveragePolicyStd": 1.1414469480514526, "AveragePolicyStd[0]": 1.1414469480514526, "AverageReturn": -1002.8644661472515, "MinReturn": -1316.12044118102, "MaxReturn": -764.1134807067962, "StdReturn": 113.79357756271818, "AverageEpisodeLength": 200.0, "MinEpisodeLength": 200.0, "MaxEpisodeLength": 200.0, "StdEpisodeLength": 0.0, "TotalNEpisodes": 448, "TotalNSamples": 89600.0, "ExplainedVariance": 0.8098555818003599}
{"Iteration": 9, "ExpectedImprovement": 0.007888243533670902, "ActualImprovement": 0.007824978891014744, "ImprovementRatio": 0.9919798821643737, "MeanKL": 0.009856442920863628, "Entropy": 1.5565807819366455, "Perplexity": 4.74257755279541, "AveragePolicyStd": 1.1475646495819092, "AveragePolicyStd[0]": 1.1475646495819092, "AverageReturn": -979.2910442353032, "MinReturn": -1316.12044118102, "MaxReturn": -656.7028869213057, "StdReturn": 114.31775103845659, "AverageEpisodeLength": 200.0, "MinEpisodeLength": 200.0, "MaxEpisodeLength": 200.0, "StdEpisodeLength": 0.0, "TotalNEpisodes": 496, "TotalNSamples": 99200.0, "ExplainedVariance": 0.851016830478174}
{"Iteration": 10, "ExpectedImprovement": 0.007735837996006013, "ActualImprovement": 0.007185149937868118, "ImprovementRatio": 0.9288133931421246, "MeanKL": 0.0066026425920426846, "Entropy": 1.5647977590560913, "Perplexity": 4.781707763671875, "AveragePolicyStd": 1.1570332050323486, "AveragePolicyStd[0]": 1.1570332050323486, "AverageReturn": -918.6895050586843, "MinReturn": -1285.2000939842155, "MaxReturn": -612.0995478774023, "StdReturn": 137.55878530956068, "AverageEpisodeLength": 200.0, "MinEpisodeLength": 200.0, "MaxEpisodeLength": 200.0, "StdEpisodeLength": 0.0, "TotalNEpisodes": 544, "TotalNSamples": 108800.0, "ExplainedVariance": 0.7856696399599961}
{"Iteration": 11, "ExpectedImprovement": 0.007193610817193986, "ActualImprovement": 0.007102148457617474, "ImprovementRatio": 0.9872856119269199, "MeanKL": 0.006729940418154001, "Entropy": 1.5485574007034302, "Perplexity": 4.704678535461426, "AveragePolicyStd": 1.1383943557739258, "AveragePolicyStd[0]": 1.1383943557739258, "AverageReturn": -879.6424780646126, "MinReturn": -1285.2000939842155, "MaxReturn": -612.0995478774023, "StdReturn": 145.7108196394006, "AverageEpisodeLength": 200.0, "MinEpisodeLength": 200.0, "MaxEpisodeLength": 200.0, "StdEpisodeLength": 0.0, "TotalNEpisodes": 592, "TotalNSamples": 118400.0, "ExplainedVariance": 0.7260243714382413}
{"Iteration": 12, "ExpectedImprovement": 0.00762958973646164, "ActualImprovement": 0.0073713986203074455, "ImprovementRatio": 0.966159239871011, "MeanKL": 0.006603236310184002, "Entropy": 1.5315130949020386, "Perplexity": 4.62516975402832, "AveragePolicyStd": 1.1191556453704834, "AveragePolicyStd[0]": 1.1191556453704834, "AverageReturn": -868.7569357805136, "MinReturn": -1152.3805528592627, "MaxReturn": -516.4666070433084, "StdReturn": 144.30071954713256, "AverageEpisodeLength": 200.0, "MinEpisodeLength": 200.0, "MaxEpisodeLength": 200.0, "StdEpisodeLength": 0.0, "TotalNEpisodes": 640, "TotalNSamples": 128000.0, "ExplainedVariance": 0.6900480653395316}
{"Iteration": 13, "ExpectedImprovement": 0.008023086190223695, "ActualImprovement": 0.007833950221538544, "ImprovementRatio": 0.9764260330500228, "MeanKL": 0.006832833867520094, "Entropy": 1.5255354642868042, "Perplexity": 4.597604751586914, "AveragePolicyStd": 1.1124858856201172, "AveragePolicyStd[0]": 1.1124858856201172, "AverageReturn": -877.2110794144461, "MinReturn": -1221.1135058475145, "MaxReturn": -516.4666070433084, "StdReturn": 141.58734227795557, "AverageEpisodeLength": 200.0, "MinEpisodeLength": 200.0, "MaxEpisodeLength": 200.0, "StdEpisodeLength": 0.0, "TotalNEpisodes": 688, "TotalNSamples": 137600.0, "ExplainedVariance": 0.658985671383891}
{"Iteration": 14, "ExpectedImprovement": 0.0072293363511562354, "ActualImprovement": 0.007153237912058907, "ImprovementRatio": 0.9894736618410129, "MeanKL": 0.007042990531772375, "Entropy": 1.532923936843872, "Perplexity": 4.631700038909912, "AveragePolicyStd": 1.1207352876663208, "AveragePolicyStd[0]": 1.1207352876663208, "AverageReturn": -835.7105038402023, "MinReturn": -1221.1135058475145, "MaxReturn": -500.05597411891057, "StdReturn": 144.60057678952592, "AverageEpisodeLength": 200.0, "MinEpisodeLength": 200.0, "MaxEpisodeLength": 200.0, "StdEpisodeLength": 0.0, "TotalNEpisodes": 736, "TotalNSamples": 147200.0, "ExplainedVariance": 0.664967486240367}
{"Iteration": 15, "ExpectedImprovement": 0.007761797402054071, "ActualImprovement": 0.007285490076989198, "ImprovementRatio": 0.9386344038123408, "MeanKL": 0.009685849770903587, "Entropy": 1.5190047025680542, "Perplexity": 4.567676544189453, "AveragePolicyStd": 1.1052439212799072, "AveragePolicyStd[0]": 1.1052439212799072, "AverageReturn": -804.5854969902244, "MinReturn": -1159.6884212116938, "MaxReturn": -397.8463660073195, "StdReturn": 145.77258097511265, "AverageEpisodeLength": 200.0, "MinEpisodeLength": 200.0, "MaxEpisodeLength": 200.0, "StdEpisodeLength": 0.0, "TotalNEpisodes": 800, "TotalNSamples": 160000.0, "ExplainedVariance": 0.7435107521669787}
{"Iteration": 16, "ExpectedImprovement": 0.010659931600093842, "ActualImprovement": 0.01049777747541647, "ImprovementRatio": 0.9847884460463194, "MeanKL": 0.006859596818685532, "Entropy": 1.4974567890167236, "Perplexity": 4.470305442810059, "AveragePolicyStd": 1.0816830396652222, "AveragePolicyStd[0]": 1.0816830396652222, "AverageReturn": -781.1209904958293, "MinReturn": -1159.6884212116938, "MaxReturn": -365.25176212418825, "StdReturn": 152.6610624157498, "AverageEpisodeLength": 200.0, "MinEpisodeLength": 200.0, "MaxEpisodeLength": 200.0, "StdEpisodeLength": 0.0, "TotalNEpisodes": 848, "TotalNSamples": 169600.0, "ExplainedVariance": 0.8159409681887411}
{"Iteration": 17, "ExpectedImprovement": 0.009481036663055421, "ActualImprovement": 0.009523208589851895, "ImprovementRatio": 1.004448029081124, "MeanKL": 0.006700342986732721, "Entropy": 1.4686166048049927, "Perplexity": 4.343222618103027, "AveragePolicyStd": 1.050932765007019, "AveragePolicyStd[0]": 1.050932765007019, "AverageReturn": -726.480171518959, "MinReturn": -1130.138249227863, "MaxReturn": -256.17388335744806, "StdReturn": 157.3683131447551, "AverageEpisodeLength": 200.0, "MinEpisodeLength": 200.0, "MaxEpisodeLength": 200.0, "StdEpisodeLength": 0.0, "TotalNEpisodes": 896, "TotalNSamples": 179200.0, "ExplainedVariance": 0.779905267755113}
{"Iteration": 18, "ExpectedImprovement": 0.011486114561557771, "ActualImprovement": 0.011219866989553129, "ImprovementRatio": 0.9768200490620448, "MeanKL": 0.006893324665725231, "Entropy": 1.4689311981201172, "Perplexity": 4.3445892333984375, "AveragePolicyStd": 1.051263689994812, "AveragePolicyStd[0]": 1.051263689994812, "AverageReturn": -653.3482139481522, "MinReturn": -1033.922091761721, "MaxReturn": -256.17388335744806, "StdReturn": 145.1942220038261, "AverageEpisodeLength": 200.0, "MinEpisodeLength": 200.0, "MaxEpisodeLength": 200.0, "StdEpisodeLength": 0.0, "TotalNEpisodes": 944, "TotalNSamples": 188800.0, "ExplainedVariance": 0.7534346002428334}
{"Iteration": 19, "ExpectedImprovement": 0.01167656183242798, "ActualImprovement": 0.011432815085351544, "ImprovementRatio": 0.979125126850311, "MeanKL": 0.006722036749124527, "Entropy": 1.447113275527954, "Perplexity": 4.250825881958008, "AveragePolicyStd": 1.0285757780075073, "AveragePolicyStd[0]": 1.0285757780075073, "AverageReturn": -585.45000423525, "MinReturn": -986.0262479184262, "MaxReturn": -84.99335185083203, "StdReturn": 161.7058465438977, "AverageEpisodeLength": 200.0, "MinEpisodeLength": 200.0, "MaxEpisodeLength": 200.0, "StdEpisodeLength": 0.0, "TotalNEpisodes": 992, "TotalNSamples": 198400.0, "ExplainedVariance": 0.6292733512364421}
{"Iteration": 20, "ExpectedImprovement": 0.015185147523880005, "ActualImprovement": 0.014666372336446187, "ImprovementRatio": 0.9658366712198221, "MeanKL": 0.006638955324888229, "Entropy": 1.4319566488265991, "Perplexity": 4.186883449554443, "AveragePolicyStd": 1.0131032466888428, "AveragePolicyStd[0]": 1.0131032466888428, "AverageReturn": -510.94984092294055, "MinReturn": -986.0262479184262, "MaxReturn": -70.94771097297858, "StdReturn": 188.9019600686964, "AverageEpisodeLength": 200.0, "MinEpisodeLength": 200.0, "MaxEpisodeLength": 200.0, "StdEpisodeLength": 0.0, "TotalNEpisodes": 1040, "TotalNSamples": 208000.0, "ExplainedVariance": 0.7425877596879631}
{"Iteration": 21, "ExpectedImprovement": 0.015354405343532563, "ActualImprovement": 0.014923937718569924, "ImprovementRatio": 0.9719645524960719, "MeanKL": 0.006909648887813091, "Entropy": 1.409387469291687, "Perplexity": 4.093447208404541, "AveragePolicyStd": 0.9904940128326416, "AveragePolicyStd[0]": 0.9904940128326416, "AverageReturn": -437.43054905275073, "MinReturn": -961.8116798177605, "MaxReturn": -70.94771097297858, "StdReturn": 187.91315740590164, "AverageEpisodeLength": 200.0, "MinEpisodeLength": 200.0, "MaxEpisodeLength": 200.0, "StdEpisodeLength": 0.0, "TotalNEpisodes": 1088, "TotalNSamples": 217600.0, "ExplainedVariance": 0.7957955157656567}
{"Iteration": 22, "ExpectedImprovement": 0.014065620303153992, "ActualImprovement": 0.013645049521327057, "ImprovementRatio": 0.9700993789991168, "MeanKL": 0.006667408626526594, "Entropy": 1.386759877204895, "Perplexity": 4.001862525939941, "AveragePolicyStd": 0.9683333039283752, "AveragePolicyStd[0]": 0.9683333039283752, "AverageReturn": -368.31831517583873, "MinReturn": -745.6446349998861, "MaxReturn": -1.8715235413425528, "StdReturn": 195.3805961758453, "AverageEpisodeLength": 200.0, "MinEpisodeLength": 200.0, "MaxEpisodeLength": 200.0, "StdEpisodeLength": 0.0, "TotalNEpisodes": 1136, "TotalNSamples": 227200.0, "ExplainedVariance": 0.8383915375003373}
{"Iteration": 23, "ExpectedImprovement": 0.019875189289450645, "ActualImprovement": 0.019043500524759338, "ImprovementRatio": 0.9581544229552192, "MeanKL": 0.009639602154493332, "Entropy": 1.3735713958740234, "Perplexity": 3.949430465698242, "AveragePolicyStd": 0.9556465744972229, "AveragePolicyStd[0]": 0.9556465744972229, "AverageReturn": -289.3243032144618, "MinReturn": -693.8033149827488, "MaxReturn": -1.240240622574873, "StdReturn": 183.823418326159, "AverageEpisodeLength": 200.0, "MinEpisodeLength": 200.0, "MaxEpisodeLength": 200.0, "StdEpisodeLength": 0.0, "TotalNEpisodes": 1200, "TotalNSamples": 240000.0, "ExplainedVariance": 0.9342589957538722}
{"Iteration": 24, "ExpectedImprovement": 0.014893507584929466, "ActualImprovement": 0.013745617121458054, "ImprovementRatio": 0.922926788271626, "MeanKL": 0.0093014445155859, "Entropy": 1.375461459159851, "Perplexity": 3.956902265548706, "AveragePolicyStd": 0.9574545621871948, "AveragePolicyStd[0]": 0.9574545621871948, "AverageReturn": -273.8909873977268, "MinReturn": -771.9579420044438, "MaxReturn": -1.140940532858119, "StdReturn": 185.3451692543882, "AverageEpisodeLength": 200.0, "MinEpisodeLength": 200.0, "MaxEpisodeLength": 200.0, "StdEpisodeLength": 0.0, "TotalNEpisodes": 1248, "TotalNSamples": 249600.0, "ExplainedVariance": 0.7323442796318005}
{"Iteration": 25, "ExpectedImprovement": 0.018208935856819153, "ActualImprovement": 0.015422477723658123, "ImprovementRatio": 0.8469730381241628, "MeanKL": 0.008611997589468956, "Entropy": 1.3646608591079712, "Perplexity": 3.914395332336426, "AveragePolicyStd": 0.9471691846847534, "AveragePolicyStd[0]": 0.9471691846847534, "AverageReturn": -257.0130177017455, "MinReturn": -771.9579420044438, "MaxReturn": -1.140940532858119, "StdReturn": 169.75917733970053, "AverageEpisodeLength": 200.0, "MinEpisodeLength": 200.0, "MaxEpisodeLength": 200.0, "StdEpisodeLength": 0.0, "TotalNEpisodes": 1296, "TotalNSamples": 259200.0, "ExplainedVariance": 0.881466129163161}
{"Iteration": 26, "ExpectedImprovement": 0.01551051586866379, "ActualImprovement": 0.01417306438088417, "ImprovementRatio": 0.9137713085042065, "MeanKL": 0.006591974291950464, "Entropy": 1.3511735200881958, "Perplexity": 3.861954927444458, "AveragePolicyStd": 0.934479832649231, "AveragePolicyStd[0]": 0.934479832649231, "AverageReturn": -231.62640720911986, "MinReturn": -505.08567138659816, "MaxReturn": -0.925220084037271, "StdReturn": 147.7402928305861, "AverageEpisodeLength": 200.0, "MinEpisodeLength": 200.0, "MaxEpisodeLength": 200.0, "StdEpisodeLength": 0.0, "TotalNEpisodes": 1344, "TotalNSamples": 268800.0, "ExplainedVariance": 0.9116208093592172}
{"Iteration": 27, "ExpectedImprovement": 0.01518321130424738, "ActualImprovement": 0.015620860013365823, "ImprovementRatio": 1.0288245154696631, "MeanKL": 0.009806273505091667, "Entropy": 1.3363151550292969, "Perplexity": 3.8049967288970947, "AveragePolicyStd": 0.9206980466842651, "AveragePolicyStd[0]": 0.9206980466842651, "AverageReturn": -201.03316751326417, "MinReturn": -505.08567138659816, "MaxReturn": -0.925220084037271, "StdReturn": 141.12924835739497, "AverageEpisodeLength": 200.0, "MinEpisodeLength": 200.0, "MaxEpisodeLength": 200.0, "StdEpisodeLength": 0.0, "TotalNEpisodes": 1392, "TotalNSamples": 278400.0, "ExplainedVariance": 0.9176076445569243}
{"Iteration": 28, "ExpectedImprovement": 0.018085043877363205, "ActualImprovement": 0.013689461500942746, "ImprovementRatio": 0.756949310920813, "MeanKL": 0.008816088549792767, "Entropy": 1.3308923244476318, "Perplexity": 3.784418821334839, "AveragePolicyStd": 0.9157183170318604, "AveragePolicyStd[0]": 0.9157183170318604, "AverageReturn": -191.84984155266605, "MinReturn": -498.30348492015014, "MaxReturn": -0.986673224771209, "StdReturn": 123.64011692820164, "AverageEpisodeLength": 200.0, "MinEpisodeLength": 200.0, "MaxEpisodeLength": 200.0, "StdEpisodeLength": 0.0, "TotalNEpisodes": 1440, "TotalNSamples": 288000.0, "ExplainedVariance": 0.9735860554645945}
{"Iteration": 29, "ExpectedImprovement": 0.018399151042103767, "ActualImprovement": 0.012883293958008135, "ImprovementRatio": 0.7002113265186313, "MeanKL": 0.009883526712656021, "Entropy": 1.3255811929702759, "Perplexity": 3.7643725872039795, "AveragePolicyStd": 0.9108677506446838, "AveragePolicyStd[0]": 0.9108677506446838, "AverageReturn": -189.15028195665698, "MinReturn": -472.07354783028825, "MaxReturn": -0.9459475082445875, "StdReturn": 114.22424924814136, "AverageEpisodeLength": 200.0, "MinEpisodeLength": 200.0, "MaxEpisodeLength": 200.0, "StdEpisodeLength": 0.0, "TotalNEpisodes": 1488, "TotalNSamples": 297600.0, "ExplainedVariance": 0.8751111746071345}
{"Iteration": 30, "ExpectedImprovement": 0.011297066695988178, "ActualImprovement": 0.01072367004752195, "ImprovementRatio": 0.9492437582341747, "MeanKL": 0.009519074112176895, "Entropy": 1.3083778619766235, "Perplexity": 3.700166702270508, "AveragePolicyStd": 0.8953320980072021, "AveragePolicyStd[0]": 0.8953320980072021, "AverageReturn": -199.7912809921763, "MinReturn": -522.5249775079637, "MaxReturn": -0.9324998996738791, "StdReturn": 119.86334106262427, "AverageEpisodeLength": 200.0, "MinEpisodeLength": 200.0, "MaxEpisodeLength": 200.0, "StdEpisodeLength": 0.0, "TotalNEpisodes": 1536, "TotalNSamples": 307200.0, "ExplainedVariance": 0.9028445868465271}
{"Iteration": 31, "ExpectedImprovement": 0.022495245561003685, "ActualImprovement": 0.018530658030509795, "ImprovementRatio": 0.8237588685243497, "MeanKL": 0.009877750650048256, "Entropy": 1.28298819065094, "Perplexity": 3.60740327835083, "AveragePolicyStd": 0.8728863000869751, "AveragePolicyStd[0]": 0.8728863000869751, "AverageReturn": -212.88798298899127, "MinReturn": -522.5249775079637, "MaxReturn": -0.8312766391947206, "StdReturn": 129.44926152349333, "AverageEpisodeLength": 200.0, "MinEpisodeLength": 200.0, "MaxEpisodeLength": 200.0, "StdEpisodeLength": 0.0, "TotalNEpisodes": 1600, "TotalNSamples": 320000.0, "ExplainedVariance": 0.9048390112663482}
{"Iteration": 32, "ExpectedImprovement": 0.008142149448394776, "ActualImprovement": 0.007632847538590393, "ImprovementRatio": 0.9374487151049786, "MeanKL": 0.008402160368859768, "Entropy": 1.2867624759674072, "Perplexity": 3.621044397354126, "AveragePolicyStd": 0.8761870861053467, "AveragePolicyStd[0]": 0.8761870861053467, "AverageReturn": -190.53410572090954, "MinReturn": -494.28505877745187, "MaxReturn": -0.8312766391947206, "StdReturn": 117.62157534197313, "AverageEpisodeLength": 200.0, "MinEpisodeLength": 200.0, "MaxEpisodeLength": 200.0, "StdEpisodeLength": 0.0, "TotalNEpisodes": 1648, "TotalNSamples": 329600.0, "ExplainedVariance": 0.9492026432928985}
{"Iteration": 33, "ExpectedImprovement": 0.013643409311771394, "ActualImprovement": 0.01272654253989458, "ImprovementRatio": 0.9327978256075811, "MeanKL": 0.0070091537199914455, "Entropy": 1.2511354684829712, "Perplexity": 3.4943084716796875, "AveragePolicyStd": 0.8455206751823425, "AveragePolicyStd[0]": 0.8455206751823425, "AverageReturn": -185.3908578264125, "MinReturn": -401.340756646304, "MaxReturn": -0.908478234226051, "StdReturn": 114.48846118606293, "AverageEpisodeLength": 200.0, "MinEpisodeLength": 200.0, "MaxEpisodeLength": 200.0, "StdEpisodeLength": 0.0, "TotalNEpisodes": 1696, "TotalNSamples": 339200.0, "ExplainedVariance": 0.9444241697939617}
{"Iteration": 34, "ExpectedImprovement": 0.01729918085038662, "ActualImprovement": 0.016445279121398926, "ImprovementRatio": 0.9506391813362302, "MeanKL": 0.008736301213502884, "Entropy": 1.2424715757369995, "Perplexity": 3.4641647338867188, "AveragePolicyStd": 0.838226318359375, "AveragePolicyStd[0]": 0.838226318359375, "AverageReturn": -184.26671707616762, "MinReturn": -406.09915513089754, "MaxReturn": -0.9324847094281751, "StdReturn": 119.6841965541825, "AverageEpisodeLength": 200.0, "MinEpisodeLength": 200.0, "MaxEpisodeLength": 200.0, "StdEpisodeLength": 0.0, "TotalNEpisodes": 1744, "TotalNSamples": 348800.0, "ExplainedVariance": 0.9729166503777702}
{"Iteration": 35, "ExpectedImprovement": 0.015375359356403351, "ActualImprovement": 0.012651875357329923, "ImprovementRatio": 0.8228669694188849, "MeanKL": 0.006783206015825272, "Entropy": 1.2463252544403076, "Perplexity": 3.4775402545928955, "AveragePolicyStd": 0.8414630889892578, "AveragePolicyStd[0]": 0.8414630889892578, "AverageReturn": -177.98114401335258, "MinReturn": -406.09915513089754, "MaxReturn": -0.9536116187915873, "StdReturn": 117.85383286268399, "AverageEpisodeLength": 200.0, "MinEpisodeLength": 200.0, "MaxEpisodeLength": 200.0, "StdEpisodeLength": 0.0, "TotalNEpisodes": 1792, "TotalNSamples": 358400.0, "ExplainedVariance": 0.9611627558798941}
{"Iteration": 36, "ExpectedImprovement": 0.015741170942783357, "ActualImprovement": 0.013815891435742689, "ImprovementRatio": 0.8776914681862771, "MeanKL": 0.006713696755468845, "Entropy": 1.247227430343628, "Perplexity": 3.4806790351867676, "AveragePolicyStd": 0.8422224521636963, "AveragePolicyStd[0]": 0.8422224521636963, "AverageReturn": -174.7598385812348, "MinReturn": -414.1910438083102, "MaxReturn": -0.9795476911800488, "StdReturn": 112.75276224947157, "AverageEpisodeLength": 200.0, "MinEpisodeLength": 200.0, "MaxEpisodeLength": 200.0, "StdEpisodeLength": 0.0, "TotalNEpisodes": 1840, "TotalNSamples": 368000.0, "ExplainedVariance": 0.9426475325819121}
{"Iteration": 37, "ExpectedImprovement": 0.01368744969367981, "ActualImprovement": 0.013661867938935757, "ImprovementRatio": 0.9981310064828318, "MeanKL": 0.006759254261851311, "Entropy": 1.2304245233535767, "Perplexity": 3.422682285308838, "AveragePolicyStd": 0.8281888365745544, "AveragePolicyStd[0]": 0.8281888365745544, "AverageReturn": -180.94362357040438, "MinReturn": -414.1910438083102, "MaxReturn": -0.9370095120045183, "StdReturn": 104.32609300584912, "AverageEpisodeLength": 200.0, "MinEpisodeLength": 200.0, "MaxEpisodeLength": 200.0, "StdEpisodeLength": 0.0, "TotalNEpisodes": 1888, "TotalNSamples": 377600.0, "ExplainedVariance": 0.9709372006923337}
{"Iteration": 38, "ExpectedImprovement": 0.013341447338461876, "ActualImprovement": 0.009207763709127903, "ImprovementRatio": 0.6901622796638388, "MeanKL": 0.009577360935509205, "Entropy": 1.225550889968872, "Perplexity": 3.4060418605804443, "AveragePolicyStd": 0.824162483215332, "AveragePolicyStd[0]": 0.824162483215332, "AverageReturn": -175.0060095884084, "MinReturn": -389.3524409002345, "MaxReturn": -0.8541485480756216, "StdReturn": 100.25995465186745, "AverageEpisodeLength": 200.0, "MinEpisodeLength": 200.0, "MaxEpisodeLength": 200.0, "StdEpisodeLength": 0.0, "TotalNEpisodes": 1936, "TotalNSamples": 387200.0, "ExplainedVariance": 0.9327557263226215}
{"Iteration": 39, "ExpectedImprovement": 0.016494305804371834, "ActualImprovement": 0.017509784549474716, "ImprovementRatio": 1.0615654127640661, "MeanKL": 0.009685921482741833, "Entropy": 1.2146979570388794, "Perplexity": 3.369276285171509, "AveragePolicyStd": 0.8152663111686707, "AveragePolicyStd[0]": 0.8152663111686707, "AverageReturn": -157.54516365668755, "MinReturn": -504.4987903018293, "MaxReturn": -0.6334779482178102, "StdReturn": 98.80474492804615, "AverageEpisodeLength": 200.0, "MinEpisodeLength": 200.0, "MaxEpisodeLength": 200.0, "StdEpisodeLength": 0.0, "TotalNEpisodes": 2000, "TotalNSamples": 400000.0, "ExplainedVariance": 0.9493703380011718}
