[2019-08-27 16:39:47.638297 UTC] Starting env pool
[2019-08-27 16:39:47.681661 UTC] Starting iteration 0
[2019-08-27 16:39:47.682509 UTC] Start collecting samples
[2019-08-27 16:39:48.669941 UTC] Computing input variables for policy optimization
[2019-08-27 16:39:48.754643 UTC] Computing policy gradient
[2019-08-27 16:39:48.777868 UTC] Updating baseline
[2019-08-27 16:39:48.890532 UTC] Computing logging information
-------------------------------------
| Iteration            | 0          |
| SurrLoss             | -0.0026496 |
| Entropy              | 0.6925     |
| Perplexity           | 1.9987     |
| AveragePolicyProb[0] | 0.50155    |
| AveragePolicyProb[1] | 0.49845    |
| AverageReturn        | 23.462     |
| MinReturn            | 9          |
| MaxReturn            | 81         |
| StdReturn            | 11.748     |
| AverageEpisodeLength | 23.462     |
| MinEpisodeLength     | 9          |
| MaxEpisodeLength     | 81         |
| StdEpisodeLength     | 11.748     |
| TotalNEpisodes       | 78         |
| TotalNSamples        | 1830       |
| ExplainedVariance    | -0.0058665 |
-------------------------------------
[2019-08-27 16:39:49.700029 UTC] Saving snapshot
[2019-08-27 16:39:49.716994 UTC] Starting iteration 1
[2019-08-27 16:39:49.717630 UTC] Start collecting samples
[2019-08-27 16:39:50.319803 UTC] Computing input variables for policy optimization
[2019-08-27 16:39:50.365906 UTC] Computing policy gradient
[2019-08-27 16:39:50.379817 UTC] Updating baseline
[2019-08-27 16:39:50.493482 UTC] Computing logging information
------------------------------------
| Iteration            | 1         |
| SurrLoss             | -0.028403 |
| Entropy              | 0.63881   |
| Perplexity           | 1.8942    |
| AveragePolicyProb[0] | 0.48601   |
| AveragePolicyProb[1] | 0.51399   |
| AverageReturn        | 30.72     |
| MinReturn            | 9         |
| MaxReturn            | 109       |
| StdReturn            | 18.103    |
| AverageEpisodeLength | 30.72     |
| MinEpisodeLength     | 9         |
| MaxEpisodeLength     | 109       |
| StdEpisodeLength     | 18.103    |
| TotalNEpisodes       | 124       |
| TotalNSamples        | 3619      |
| ExplainedVariance    | 0.15902   |
------------------------------------
[2019-08-27 16:39:51.278649 UTC] Saving snapshot
[2019-08-27 16:39:51.290500 UTC] Starting iteration 2
[2019-08-27 16:39:51.290996 UTC] Start collecting samples
[2019-08-27 16:39:51.723435 UTC] Computing input variables for policy optimization
[2019-08-27 16:39:51.768634 UTC] Computing policy gradient
[2019-08-27 16:39:51.779291 UTC] Updating baseline
[2019-08-27 16:39:51.877423 UTC] Computing logging information
------------------------------------
| Iteration            | 2         |
| SurrLoss             | -0.044707 |
| Entropy              | 0.60104   |
| Perplexity           | 1.824     |
| AveragePolicyProb[0] | 0.48011   |
| AveragePolicyProb[1] | 0.51989   |
| AverageReturn        | 38.42     |
| MinReturn            | 10        |
| MaxReturn            | 112       |
| StdReturn            | 22.32     |
| AverageEpisodeLength | 38.42     |
| MinEpisodeLength     | 10        |
| MaxEpisodeLength     | 112       |
| StdEpisodeLength     | 22.32     |
| TotalNEpisodes       | 148       |
| TotalNSamples        | 5017      |
| ExplainedVariance    | 0.33975   |
------------------------------------
[2019-08-27 16:39:52.627203 UTC] Saving snapshot
[2019-08-27 16:39:52.641231 UTC] Starting iteration 3
[2019-08-27 16:39:52.642015 UTC] Start collecting samples
[2019-08-27 16:39:53.088774 UTC] Computing input variables for policy optimization
[2019-08-27 16:39:53.120659 UTC] Computing policy gradient
[2019-08-27 16:39:53.132549 UTC] Updating baseline
[2019-08-27 16:39:53.274161 UTC] Computing logging information
------------------------------------
| Iteration            | 3         |
| SurrLoss             | -0.022341 |
| Entropy              | 0.56557   |
| Perplexity           | 1.7605    |
| AveragePolicyProb[0] | 0.51612   |
| AveragePolicyProb[1] | 0.48388   |
| AverageReturn        | 53.1      |
| MinReturn            | 10        |
| MaxReturn            | 200       |
| StdReturn            | 42.011    |
| AverageEpisodeLength | 53.1      |
| MinEpisodeLength     | 10        |
| MaxEpisodeLength     | 200       |
| StdEpisodeLength     | 42.011    |
| TotalNEpisodes       | 161       |
| TotalNSamples        | 6783      |
| ExplainedVariance    | 0.33173   |
------------------------------------
[2019-08-27 16:39:54.558055 UTC] Saving snapshot
[2019-08-27 16:39:54.573542 UTC] Starting iteration 4
[2019-08-27 16:39:54.574426 UTC] Start collecting samples
[2019-08-27 16:39:54.972791 UTC] Computing input variables for policy optimization
[2019-08-27 16:39:54.995333 UTC] Computing policy gradient
[2019-08-27 16:39:55.004134 UTC] Updating baseline
[2019-08-27 16:39:55.115266 UTC] Computing logging information
------------------------------------
| Iteration            | 4         |
| SurrLoss             | -0.018682 |
| Entropy              | 0.5227    |
| Perplexity           | 1.6866    |
| AveragePolicyProb[0] | 0.49948   |
| AveragePolicyProb[1] | 0.50052   |
| AverageReturn        | 68.93     |
| MinReturn            | 10        |
| MaxReturn            | 200       |
| StdReturn            | 52.911    |
| AverageEpisodeLength | 68.93     |
| MinEpisodeLength     | 10        |
| MaxEpisodeLength     | 200       |
| StdEpisodeLength     | 52.911    |
| TotalNEpisodes       | 173       |
| TotalNSamples        | 8606      |
| ExplainedVariance    | 0.75997   |
------------------------------------
[2019-08-27 16:39:55.808477 UTC] Saving snapshot
[2019-08-27 16:39:55.820931 UTC] Starting iteration 5
[2019-08-27 16:39:55.821606 UTC] Start collecting samples
[2019-08-27 16:39:56.158495 UTC] Computing input variables for policy optimization
[2019-08-27 16:39:56.180449 UTC] Computing policy gradient
[2019-08-27 16:39:56.191113 UTC] Updating baseline
[2019-08-27 16:39:56.284530 UTC] Computing logging information
-------------------------------------
| Iteration            | 5          |
| SurrLoss             | -0.0081843 |
| Entropy              | 0.48272    |
| Perplexity           | 1.6205     |
| AveragePolicyProb[0] | 0.4921     |
| AveragePolicyProb[1] | 0.5079     |
| AverageReturn        | 84.29      |
| MinReturn            | 16         |
| MaxReturn            | 200        |
| StdReturn            | 59.685     |
| AverageEpisodeLength | 84.29      |
| MinEpisodeLength     | 16         |
| MaxEpisodeLength     | 200        |
| StdEpisodeLength     | 59.685     |
| TotalNEpisodes       | 183        |
| TotalNSamples        | 10372      |
| ExplainedVariance    | 0.69231    |
-------------------------------------
[2019-08-27 16:39:56.937666 UTC] Saving snapshot
[2019-08-27 16:39:56.950464 UTC] Starting iteration 6
[2019-08-27 16:39:56.951116 UTC] Start collecting samples
[2019-08-27 16:39:57.322972 UTC] Computing input variables for policy optimization
[2019-08-27 16:39:57.345407 UTC] Computing policy gradient
[2019-08-27 16:39:57.357788 UTC] Updating baseline
[2019-08-27 16:39:57.469084 UTC] Computing logging information
-----------------------------------
| Iteration            | 6        |
| SurrLoss             | -0.0185  |
| Entropy              | 0.45762  |
| Perplexity           | 1.5803   |
| AveragePolicyProb[0] | 0.48894  |
| AveragePolicyProb[1] | 0.51106  |
| AverageReturn        | 102.62   |
| MinReturn            | 18       |
| MaxReturn            | 200      |
| StdReturn            | 62.643   |
| AverageEpisodeLength | 102.62   |
| MinEpisodeLength     | 18       |
| MaxEpisodeLength     | 200      |
| StdEpisodeLength     | 62.643   |
| TotalNEpisodes       | 197      |
| TotalNSamples        | 12619    |
| ExplainedVariance    | 0.60987  |
-----------------------------------
[2019-08-27 16:39:58.137806 UTC] Saving snapshot
[2019-08-27 16:39:58.147881 UTC] Starting iteration 7
[2019-08-27 16:39:58.148542 UTC] Start collecting samples
[2019-08-27 16:39:58.504409 UTC] Computing input variables for policy optimization
[2019-08-27 16:39:58.521824 UTC] Computing policy gradient
[2019-08-27 16:39:58.530248 UTC] Updating baseline
[2019-08-27 16:39:58.622990 UTC] Computing logging information
------------------------------------
| Iteration            | 7         |
| SurrLoss             | -0.010332 |
| Entropy              | 0.43068   |
| Perplexity           | 1.5383    |
| AveragePolicyProb[0] | 0.47306   |
| AveragePolicyProb[1] | 0.52694   |
| AverageReturn        | 116.37    |
| MinReturn            | 18        |
| MaxReturn            | 200       |
| StdReturn            | 62.184    |
| AverageEpisodeLength | 116.37    |
| MinEpisodeLength     | 18        |
| MaxEpisodeLength     | 200       |
| StdEpisodeLength     | 62.184    |
| TotalNEpisodes       | 208       |
| TotalNSamples        | 14440     |
| ExplainedVariance    | 0.71842   |
------------------------------------
[2019-08-27 16:39:59.302091 UTC] Saving snapshot
[2019-08-27 16:39:59.313211 UTC] Starting iteration 8
[2019-08-27 16:39:59.313802 UTC] Start collecting samples
[2019-08-27 16:39:59.633195 UTC] Computing input variables for policy optimization
[2019-08-27 16:39:59.651178 UTC] Computing policy gradient
[2019-08-27 16:39:59.661912 UTC] Updating baseline
[2019-08-27 16:39:59.893824 UTC] Computing logging information
------------------------------------
| Iteration            | 8         |
| SurrLoss             | -0.013116 |
| Entropy              | 0.4112    |
| Perplexity           | 1.5086    |
| AveragePolicyProb[0] | 0.48026   |
| AveragePolicyProb[1] | 0.51974   |
| AverageReturn        | 129.77    |
| MinReturn            | 29        |
| MaxReturn            | 200       |
| StdReturn            | 60.45     |
| AverageEpisodeLength | 129.77    |
| MinEpisodeLength     | 29        |
| MaxEpisodeLength     | 200       |
| StdEpisodeLength     | 60.45     |
| TotalNEpisodes       | 218       |
| TotalNSamples        | 16252     |
| ExplainedVariance    | 0.66176   |
------------------------------------
[2019-08-27 16:40:00.555229 UTC] Saving snapshot
[2019-08-27 16:40:00.568393 UTC] Starting iteration 9
[2019-08-27 16:40:00.569056 UTC] Start collecting samples
[2019-08-27 16:40:00.948452 UTC] Computing input variables for policy optimization
[2019-08-27 16:40:00.971149 UTC] Computing policy gradient
[2019-08-27 16:40:00.980276 UTC] Updating baseline
[2019-08-27 16:40:01.083110 UTC] Computing logging information
-----------------------------------
| Iteration            | 9        |
| SurrLoss             | 0.012507 |
| Entropy              | 0.37544  |
| Perplexity           | 1.4556   |
| AveragePolicyProb[0] | 0.50694  |
| AveragePolicyProb[1] | 0.49306  |
| AverageReturn        | 147.4    |
| MinReturn            | 29       |
| MaxReturn            | 200      |
| StdReturn            | 55.489   |
| AverageEpisodeLength | 147.4    |
| MinEpisodeLength     | 29       |
| MaxEpisodeLength     | 200      |
| StdEpisodeLength     | 55.489   |
| TotalNEpisodes       | 231      |
| TotalNSamples        | 18722    |
| ExplainedVariance    | 0.50937  |
-----------------------------------
[2019-08-27 16:40:01.747583 UTC] Saving snapshot
[2019-08-27 16:40:01.758623 UTC] Starting iteration 10
[2019-08-27 16:40:01.759214 UTC] Start collecting samples
[2019-08-27 16:40:02.112448 UTC] Computing input variables for policy optimization
[2019-08-27 16:40:02.136128 UTC] Computing policy gradient
[2019-08-27 16:40:02.145488 UTC] Updating baseline
[2019-08-27 16:40:02.256916 UTC] Computing logging information
-------------------------------------
| Iteration            | 10         |
| SurrLoss             | 0.00071307 |
| Entropy              | 0.33966    |
| Perplexity           | 1.4045     |
| AveragePolicyProb[0] | 0.54324    |
| AveragePolicyProb[1] | 0.45676    |
| AverageReturn        | 159.84     |
| MinReturn            | 33         |
| MaxReturn            | 200        |
| StdReturn            | 47.254     |
| AverageEpisodeLength | 159.84     |
| MinEpisodeLength     | 33         |
| MaxEpisodeLength     | 200        |
| StdEpisodeLength     | 47.254     |
| TotalNEpisodes       | 242        |
| TotalNSamples        | 20676      |
| ExplainedVariance    | 0.64675    |
-------------------------------------
[2019-08-27 16:40:02.934960 UTC] Saving snapshot
[2019-08-27 16:40:02.945921 UTC] Starting iteration 11
[2019-08-27 16:40:02.946685 UTC] Start collecting samples
[2019-08-27 16:40:03.274132 UTC] Computing input variables for policy optimization
[2019-08-27 16:40:03.299414 UTC] Computing policy gradient
[2019-08-27 16:40:03.308443 UTC] Updating baseline
[2019-08-27 16:40:03.398478 UTC] Computing logging information
-------------------------------------
| Iteration            | 11         |
| SurrLoss             | -0.0028137 |
| Entropy              | 0.32894    |
| Perplexity           | 1.3895     |
| AveragePolicyProb[0] | 0.53721    |
| AveragePolicyProb[1] | 0.46279    |
| AverageReturn        | 167.72     |
| MinReturn            | 64         |
| MaxReturn            | 200        |
| StdReturn            | 37.118     |
| AverageEpisodeLength | 167.72     |
| MinEpisodeLength     | 64         |
| MaxEpisodeLength     | 200        |
| StdEpisodeLength     | 37.118     |
| TotalNEpisodes       | 252        |
| TotalNSamples        | 22268      |
| ExplainedVariance    | 0.90221    |
-------------------------------------
[2019-08-27 16:40:04.071061 UTC] Saving snapshot
[2019-08-27 16:40:04.081486 UTC] Starting iteration 12
[2019-08-27 16:40:04.082079 UTC] Start collecting samples
[2019-08-27 16:40:04.481958 UTC] Computing input variables for policy optimization
[2019-08-27 16:40:04.505901 UTC] Computing policy gradient
[2019-08-27 16:40:04.518764 UTC] Updating baseline
[2019-08-27 16:40:04.616141 UTC] Computing logging information
-------------------------------------
| Iteration            | 12         |
| SurrLoss             | -0.0050583 |
| Entropy              | 0.31665    |
| Perplexity           | 1.3725     |
| AveragePolicyProb[0] | 0.51772    |
| AveragePolicyProb[1] | 0.48228    |
| AverageReturn        | 171.83     |
| MinReturn            | 84         |
| MaxReturn            | 200        |
| StdReturn            | 32.47      |
| AverageEpisodeLength | 171.83     |
| MinEpisodeLength     | 84         |
| MaxEpisodeLength     | 200        |
| StdEpisodeLength     | 32.47      |
| TotalNEpisodes       | 266        |
| TotalNSamples        | 24675      |
| ExplainedVariance    | 0.95821    |
-------------------------------------
[2019-08-27 16:40:05.468034 UTC] Saving snapshot
[2019-08-27 16:40:05.488149 UTC] Starting iteration 13
[2019-08-27 16:40:05.489251 UTC] Start collecting samples
[2019-08-27 16:40:05.891911 UTC] Computing input variables for policy optimization
[2019-08-27 16:40:05.913325 UTC] Computing policy gradient
[2019-08-27 16:40:05.922194 UTC] Updating baseline
[2019-08-27 16:40:06.038882 UTC] Computing logging information
-------------------------------------
| Iteration            | 13         |
| SurrLoss             | -0.0089695 |
| Entropy              | 0.30494    |
| Perplexity           | 1.3565     |
| AveragePolicyProb[0] | 0.51431    |
| AveragePolicyProb[1] | 0.48569    |
| AverageReturn        | 174.15     |
| MinReturn            | 84         |
| MaxReturn            | 200        |
| StdReturn            | 31.112     |
| AverageEpisodeLength | 174.15     |
| MinEpisodeLength     | 84         |
| MaxEpisodeLength     | 200        |
| StdEpisodeLength     | 31.112     |
| TotalNEpisodes       | 276        |
| TotalNSamples        | 26568      |
| ExplainedVariance    | 0.78158    |
-------------------------------------
[2019-08-27 16:40:06.900037 UTC] Saving snapshot
[2019-08-27 16:40:06.913769 UTC] Starting iteration 14
[2019-08-27 16:40:06.914588 UTC] Start collecting samples
[2019-08-27 16:40:07.205162 UTC] Computing input variables for policy optimization
[2019-08-27 16:40:07.221905 UTC] Computing policy gradient
[2019-08-27 16:40:07.232375 UTC] Updating baseline
[2019-08-27 16:40:07.317276 UTC] Computing logging information
------------------------------------
| Iteration            | 14        |
| SurrLoss             | 0.0091991 |
| Entropy              | 0.30466   |
| Perplexity           | 1.3562    |
| AveragePolicyProb[0] | 0.51024   |
| AveragePolicyProb[1] | 0.48976   |
| AverageReturn        | 175.75    |
| MinReturn            | 84        |
| MaxReturn            | 200       |
| StdReturn            | 31        |
| AverageEpisodeLength | 175.75    |
| MinEpisodeLength     | 84        |
| MaxEpisodeLength     | 200       |
| StdEpisodeLength     | 31        |
| TotalNEpisodes       | 283       |
| TotalNSamples        | 27947     |
| ExplainedVariance    | 0.72438   |
------------------------------------
[2019-08-27 16:40:08.113890 UTC] Saving snapshot
[2019-08-27 16:40:08.128609 UTC] Starting iteration 15
[2019-08-27 16:40:08.129485 UTC] Start collecting samples
[2019-08-27 16:40:08.493855 UTC] Computing input variables for policy optimization
[2019-08-27 16:40:08.513508 UTC] Computing policy gradient
[2019-08-27 16:40:08.522189 UTC] Updating baseline
[2019-08-27 16:40:08.631369 UTC] Computing logging information
-------------------------------------
| Iteration            | 15         |
| SurrLoss             | 0.00044482 |
| Entropy              | 0.30285    |
| Perplexity           | 1.3537     |
| AveragePolicyProb[0] | 0.4941     |
| AveragePolicyProb[1] | 0.5059     |
| AverageReturn        | 180.24     |
| MinReturn            | 96         |
| MaxReturn            | 200        |
| StdReturn            | 27.027     |
| AverageEpisodeLength | 180.24     |
| MinEpisodeLength     | 96         |
| MaxEpisodeLength     | 200        |
| StdEpisodeLength     | 27.027     |
| TotalNEpisodes       | 296        |
| TotalNSamples        | 30547      |
| ExplainedVariance    | 0.51266    |
-------------------------------------
[2019-08-27 16:40:09.432378 UTC] Saving snapshot
[2019-08-27 16:40:09.444219 UTC] Starting iteration 16
[2019-08-27 16:40:09.445019 UTC] Start collecting samples
[2019-08-27 16:40:09.766590 UTC] Computing input variables for policy optimization
[2019-08-27 16:40:09.791979 UTC] Computing policy gradient
[2019-08-27 16:40:09.802235 UTC] Updating baseline
[2019-08-27 16:40:09.890364 UTC] Computing logging information
------------------------------------
| Iteration            | 16        |
| SurrLoss             | 0.0021983 |
| Entropy              | 0.29955   |
| Perplexity           | 1.3492    |
| AveragePolicyProb[0] | 0.49575   |
| AveragePolicyProb[1] | 0.50425   |
| AverageReturn        | 184.14    |
| MinReturn            | 107       |
| MaxReturn            | 200       |
| StdReturn            | 23.981    |
| AverageEpisodeLength | 184.14    |
| MinEpisodeLength     | 107       |
| MaxEpisodeLength     | 200       |
| StdEpisodeLength     | 23.981    |
| TotalNEpisodes       | 306       |
| TotalNSamples        | 32547     |
| ExplainedVariance    | 0.44346   |
------------------------------------
[2019-08-27 16:40:10.701252 UTC] Saving snapshot
[2019-08-27 16:40:10.713311 UTC] Starting iteration 17
[2019-08-27 16:40:10.714022 UTC] Start collecting samples
[2019-08-27 16:40:11.037295 UTC] Computing input variables for policy optimization
[2019-08-27 16:40:11.055204 UTC] Computing policy gradient
[2019-08-27 16:40:11.066683 UTC] Updating baseline
[2019-08-27 16:40:11.160588 UTC] Computing logging information
-------------------------------------
| Iteration            | 17         |
| SurrLoss             | -0.0013676 |
| Entropy              | 0.30299    |
| Perplexity           | 1.3539     |
| AveragePolicyProb[0] | 0.48811    |
| AveragePolicyProb[1] | 0.51189    |
| AverageReturn        | 186.95     |
| MinReturn            | 125        |
| MaxReturn            | 200        |
| StdReturn            | 21.17      |
| AverageEpisodeLength | 186.95     |
| MinEpisodeLength     | 125        |
| MaxEpisodeLength     | 200        |
| StdEpisodeLength     | 21.17      |
| TotalNEpisodes       | 315        |
| TotalNSamples        | 34347      |
| ExplainedVariance    | 0.15067    |
-------------------------------------
[2019-08-27 16:40:11.908396 UTC] Saving snapshot
[2019-08-27 16:40:11.920312 UTC] Starting iteration 18
[2019-08-27 16:40:11.921038 UTC] Start collecting samples
[2019-08-27 16:40:12.250576 UTC] Computing input variables for policy optimization
[2019-08-27 16:40:12.271266 UTC] Computing policy gradient
[2019-08-27 16:40:12.280464 UTC] Updating baseline
[2019-08-27 16:40:12.367495 UTC] Computing logging information
-----------------------------------
| Iteration            | 18       |
| SurrLoss             | 0.018371 |
| Entropy              | 0.3055   |
| Perplexity           | 1.3573   |
| AveragePolicyProb[0] | 0.50297  |
| AveragePolicyProb[1] | 0.49703  |
| AverageReturn        | 187.89   |
| MinReturn            | 125      |
| MaxReturn            | 200      |
| StdReturn            | 20.679   |
| AverageEpisodeLength | 187.89   |
| MinEpisodeLength     | 125      |
| MaxEpisodeLength     | 200      |
| StdEpisodeLength     | 20.679   |
| TotalNEpisodes       | 326      |
| TotalNSamples        | 36547    |
| ExplainedVariance    | 0.062421 |
-----------------------------------
[2019-08-27 16:40:13.120230 UTC] Saving snapshot
[2019-08-27 16:40:13.132151 UTC] Starting iteration 19
[2019-08-27 16:40:13.133170 UTC] Start collecting samples
[2019-08-27 16:40:13.432636 UTC] Computing input variables for policy optimization
[2019-08-27 16:40:13.449655 UTC] Computing policy gradient
[2019-08-27 16:40:13.458484 UTC] Updating baseline
[2019-08-27 16:40:13.542323 UTC] Computing logging information
-------------------------------------
| Iteration            | 19         |
| SurrLoss             | -0.0087812 |
| Entropy              | 0.30583    |
| Perplexity           | 1.3578     |
| AveragePolicyProb[0] | 0.49494    |
| AveragePolicyProb[1] | 0.50506    |
| AverageReturn        | 188.35     |
| MinReturn            | 125        |
| MaxReturn            | 200        |
| StdReturn            | 20.606     |
| AverageEpisodeLength | 188.35     |
| MinEpisodeLength     | 125        |
| MaxEpisodeLength     | 200        |
| StdEpisodeLength     | 20.606     |
| TotalNEpisodes       | 334        |
| TotalNSamples        | 38147      |
| ExplainedVariance    | 0.17511    |
-------------------------------------
[2019-08-27 16:40:14.365779 UTC] Saving snapshot
[2019-08-27 16:40:14.379363 UTC] Starting iteration 20
[2019-08-27 16:40:14.379982 UTC] Start collecting samples
[2019-08-27 16:40:14.742069 UTC] Computing input variables for policy optimization
[2019-08-27 16:40:14.784598 UTC] Computing policy gradient
[2019-08-27 16:40:14.798453 UTC] Updating baseline
[2019-08-27 16:40:14.885665 UTC] Computing logging information
-------------------------------------
| Iteration            | 20         |
| SurrLoss             | -0.0001148 |
| Entropy              | 0.30458    |
| Perplexity           | 1.3561     |
| AveragePolicyProb[0] | 0.50163    |
| AveragePolicyProb[1] | 0.49837    |
| AverageReturn        | 192.26     |
| MinReturn            | 125        |
| MaxReturn            | 200        |
| StdReturn            | 18.115     |
| AverageEpisodeLength | 192.26     |
| MinEpisodeLength     | 125        |
| MaxEpisodeLength     | 200        |
| StdEpisodeLength     | 18.115     |
| TotalNEpisodes       | 346        |
| TotalNSamples        | 40547      |
| ExplainedVariance    | -0.067381  |
-------------------------------------
[2019-08-27 16:40:15.648996 UTC] Saving snapshot
[2019-08-27 16:40:15.661443 UTC] Starting iteration 21
[2019-08-27 16:40:15.662020 UTC] Start collecting samples
[2019-08-27 16:40:15.987086 UTC] Computing input variables for policy optimization
[2019-08-27 16:40:16.022310 UTC] Computing policy gradient
[2019-08-27 16:40:16.031745 UTC] Updating baseline
[2019-08-27 16:40:16.122569 UTC] Computing logging information
-----------------------------------
| Iteration            | 21       |
| SurrLoss             | 0.019042 |
| Entropy              | 0.31312  |
| Perplexity           | 1.3677   |
| AveragePolicyProb[0] | 0.49523  |
| AveragePolicyProb[1] | 0.50477  |
| AverageReturn        | 196.68   |
| MinReturn            | 156      |
| MaxReturn            | 200      |
| StdReturn            | 9.8771   |
| AverageEpisodeLength | 196.68   |
| MinEpisodeLength     | 156      |
| MaxEpisodeLength     | 200      |
| StdEpisodeLength     | 9.8771   |
| TotalNEpisodes       | 356      |
| TotalNSamples        | 42547    |
| ExplainedVariance    | 0.038567 |
-----------------------------------
[2019-08-27 16:40:17.037387 UTC] Saving snapshot
[2019-08-27 16:40:17.050992 UTC] Starting iteration 22
[2019-08-27 16:40:17.051833 UTC] Start collecting samples
[2019-08-27 16:40:17.360633 UTC] Computing input variables for policy optimization
[2019-08-27 16:40:17.378187 UTC] Computing policy gradient
[2019-08-27 16:40:17.387187 UTC] Updating baseline
[2019-08-27 16:40:17.495792 UTC] Computing logging information
-----------------------------------
| Iteration            | 22       |
| SurrLoss             | 0.013961 |
| Entropy              | 0.32705  |
| Perplexity           | 1.3869   |
| AveragePolicyProb[0] | 0.47742  |
| AveragePolicyProb[1] | 0.52258  |
| AverageReturn        | 198.45   |
| MinReturn            | 161      |
| MaxReturn            | 200      |
| StdReturn            | 6.3093   |
| AverageEpisodeLength | 198.45   |
| MinEpisodeLength     | 161      |
| MaxEpisodeLength     | 200      |
| StdEpisodeLength     | 6.3093   |
| TotalNEpisodes       | 363      |
| TotalNSamples        | 43947    |
| ExplainedVariance    | 0.04213  |
-----------------------------------
[2019-08-27 16:40:18.352207 UTC] Saving snapshot
[2019-08-27 16:40:18.365176 UTC] Starting iteration 23
[2019-08-27 16:40:18.365949 UTC] Start collecting samples
[2019-08-27 16:40:18.734331 UTC] Computing input variables for policy optimization
[2019-08-27 16:40:18.755513 UTC] Computing policy gradient
[2019-08-27 16:40:18.764967 UTC] Updating baseline
[2019-08-27 16:40:18.863299 UTC] Computing logging information
------------------------------------
| Iteration            | 23        |
| SurrLoss             | -0.015041 |
| Entropy              | 0.32841   |
| Perplexity           | 1.3888    |
| AveragePolicyProb[0] | 0.50652   |
| AveragePolicyProb[1] | 0.49348   |
| AverageReturn        | 199.79    |
| MinReturn            | 179       |
| MaxReturn            | 200       |
| StdReturn            | 2.0895    |
| AverageEpisodeLength | 199.79    |
| MinEpisodeLength     | 179       |
| MaxEpisodeLength     | 200       |
| StdEpisodeLength     | 2.0895    |
| TotalNEpisodes       | 376       |
| TotalNSamples        | 46547     |
| ExplainedVariance    | 0.16842   |
------------------------------------
[2019-08-27 16:40:19.736267 UTC] Saving snapshot
[2019-08-27 16:40:19.749028 UTC] Starting iteration 24
[2019-08-27 16:40:19.749649 UTC] Start collecting samples
[2019-08-27 16:40:20.076167 UTC] Computing input variables for policy optimization
[2019-08-27 16:40:20.099507 UTC] Computing policy gradient
[2019-08-27 16:40:20.109577 UTC] Updating baseline
[2019-08-27 16:40:20.217538 UTC] Computing logging information
------------------------------------
| Iteration            | 24        |
| SurrLoss             | 0.0097446 |
| Entropy              | 0.34029   |
| Perplexity           | 1.4054    |
| AveragePolicyProb[0] | 0.50222   |
| AveragePolicyProb[1] | 0.49778   |
| AverageReturn        | 200       |
| MinReturn            | 200       |
| MaxReturn            | 200       |
| StdReturn            | 0         |
| AverageEpisodeLength | 200       |
| MinEpisodeLength     | 200       |
| MaxEpisodeLength     | 200       |
| StdEpisodeLength     | 0         |
| TotalNEpisodes       | 386       |
| TotalNSamples        | 48547     |
| ExplainedVariance    | 0.43724   |
------------------------------------
[2019-08-27 16:40:21.087623 UTC] Saving snapshot
[2019-08-27 16:40:21.100976 UTC] Starting iteration 25
[2019-08-27 16:40:21.101656 UTC] Start collecting samples
[2019-08-27 16:40:21.426590 UTC] Computing input variables for policy optimization
[2019-08-27 16:40:21.447755 UTC] Computing policy gradient
[2019-08-27 16:40:21.457464 UTC] Updating baseline
[2019-08-27 16:40:21.547399 UTC] Computing logging information
------------------------------------
| Iteration            | 25        |
| SurrLoss             | 0.0051353 |
| Entropy              | 0.35102   |
| Perplexity           | 1.4205    |
| AveragePolicyProb[0] | 0.48472   |
| AveragePolicyProb[1] | 0.51528   |
| AverageReturn        | 200       |
| MinReturn            | 200       |
| MaxReturn            | 200       |
| StdReturn            | 0         |
| AverageEpisodeLength | 200       |
| MinEpisodeLength     | 200       |
| MaxEpisodeLength     | 200       |
| StdEpisodeLength     | 0         |
| TotalNEpisodes       | 395       |
| TotalNSamples        | 50347     |
| ExplainedVariance    | 0.48206   |
------------------------------------
[2019-08-27 16:40:22.399097 UTC] Saving snapshot
[2019-08-27 16:40:22.411733 UTC] Starting iteration 26
[2019-08-27 16:40:22.412377 UTC] Start collecting samples
[2019-08-27 16:40:22.778357 UTC] Computing input variables for policy optimization
[2019-08-27 16:40:22.797705 UTC] Computing policy gradient
[2019-08-27 16:40:22.806715 UTC] Updating baseline
[2019-08-27 16:40:22.926236 UTC] Computing logging information
-----------------------------------
| Iteration            | 26       |
| SurrLoss             | 0.015302 |
| Entropy              | 0.36208  |
| Perplexity           | 1.4363   |
| AveragePolicyProb[0] | 0.50729  |
| AveragePolicyProb[1] | 0.49271  |
| AverageReturn        | 200      |
| MinReturn            | 200      |
| MaxReturn            | 200      |
| StdReturn            | 0        |
| AverageEpisodeLength | 200      |
| MinEpisodeLength     | 200      |
| MaxEpisodeLength     | 200      |
| StdEpisodeLength     | 0        |
| TotalNEpisodes       | 406      |
| TotalNSamples        | 52547    |
| ExplainedVariance    | 0.71955  |
-----------------------------------
[2019-08-27 16:40:23.659803 UTC] Saving snapshot
[2019-08-27 16:40:23.670403 UTC] Starting iteration 27
[2019-08-27 16:40:23.671090 UTC] Start collecting samples
[2019-08-27 16:40:23.980506 UTC] Computing input variables for policy optimization
[2019-08-27 16:40:23.997436 UTC] Computing policy gradient
[2019-08-27 16:40:24.006239 UTC] Updating baseline
[2019-08-27 16:40:24.098477 UTC] Computing logging information
------------------------------------
| Iteration            | 27        |
| SurrLoss             | 0.0040565 |
| Entropy              | 0.37528   |
| Perplexity           | 1.4554    |
| AveragePolicyProb[0] | 0.50954   |
| AveragePolicyProb[1] | 0.49047   |
| AverageReturn        | 200       |
| MinReturn            | 200       |
| MaxReturn            | 200       |
| StdReturn            | 0         |
| AverageEpisodeLength | 200       |
| MinEpisodeLength     | 200       |
| MaxEpisodeLength     | 200       |
| StdEpisodeLength     | 0         |
| TotalNEpisodes       | 414       |
| TotalNSamples        | 54147     |
| ExplainedVariance    | 0.57323   |
------------------------------------
[2019-08-27 16:40:24.761220 UTC] Saving snapshot
[2019-08-27 16:40:24.771169 UTC] Starting iteration 28
[2019-08-27 16:40:24.771778 UTC] Start collecting samples
[2019-08-27 16:40:25.108123 UTC] Computing input variables for policy optimization
[2019-08-27 16:40:25.130910 UTC] Computing policy gradient
[2019-08-27 16:40:25.139655 UTC] Updating baseline
[2019-08-27 16:40:25.242169 UTC] Computing logging information
-------------------------------------
| Iteration            | 28         |
| SurrLoss             | -0.0063438 |
| Entropy              | 0.37735    |
| Perplexity           | 1.4584     |
| AveragePolicyProb[0] | 0.49706    |
| AveragePolicyProb[1] | 0.50294    |
| AverageReturn        | 200        |
| MinReturn            | 200        |
| MaxReturn            | 200        |
| StdReturn            | 0          |
| AverageEpisodeLength | 200        |
| MinEpisodeLength     | 200        |
| MaxEpisodeLength     | 200        |
| StdEpisodeLength     | 0          |
| TotalNEpisodes       | 426        |
| TotalNSamples        | 56547      |
| ExplainedVariance    | 0.79405    |
-------------------------------------
[2019-08-27 16:40:25.955016 UTC] Saving snapshot
[2019-08-27 16:40:25.966717 UTC] Starting iteration 29
[2019-08-27 16:40:25.967479 UTC] Start collecting samples
[2019-08-27 16:40:26.320252 UTC] Computing input variables for policy optimization
[2019-08-27 16:40:26.339784 UTC] Computing policy gradient
[2019-08-27 16:40:26.350045 UTC] Updating baseline
[2019-08-27 16:40:26.467801 UTC] Computing logging information
------------------------------------
| Iteration            | 29        |
| SurrLoss             | -0.013693 |
| Entropy              | 0.38089   |
| Perplexity           | 1.4636    |
| AveragePolicyProb[0] | 0.50362   |
| AveragePolicyProb[1] | 0.49638   |
| AverageReturn        | 200       |
| MinReturn            | 200       |
| MaxReturn            | 200       |
| StdReturn            | 0         |
| AverageEpisodeLength | 200       |
| MinEpisodeLength     | 200       |
| MaxEpisodeLength     | 200       |
| StdEpisodeLength     | 0         |
| TotalNEpisodes       | 436       |
| TotalNSamples        | 58547     |
| ExplainedVariance    | 0.51204   |
------------------------------------
[2019-08-27 16:40:27.569586 UTC] Saving snapshot
[2019-08-27 16:40:27.587360 UTC] Starting iteration 30
[2019-08-27 16:40:27.588071 UTC] Start collecting samples
[2019-08-27 16:40:27.870696 UTC] Computing input variables for policy optimization
[2019-08-27 16:40:27.886692 UTC] Computing policy gradient
[2019-08-27 16:40:27.895558 UTC] Updating baseline
[2019-08-27 16:40:27.985020 UTC] Computing logging information
-------------------------------------
| Iteration            | 30         |
| SurrLoss             | -0.0094692 |
| Entropy              | 0.37469    |
| Perplexity           | 1.4545     |
| AveragePolicyProb[0] | 0.49617    |
| AveragePolicyProb[1] | 0.50383    |
| AverageReturn        | 200        |
| MinReturn            | 200        |
| MaxReturn            | 200        |
| StdReturn            | 0          |
| AverageEpisodeLength | 200        |
| MinEpisodeLength     | 200        |
| MaxEpisodeLength     | 200        |
| StdEpisodeLength     | 0          |
| TotalNEpisodes       | 443        |
| TotalNSamples        | 59947      |
| ExplainedVariance    | 0.51915    |
-------------------------------------
[2019-08-27 16:40:28.869481 UTC] Saving snapshot
[2019-08-27 16:40:28.881850 UTC] Starting iteration 31
[2019-08-27 16:40:28.882600 UTC] Start collecting samples
[2019-08-27 16:40:29.233903 UTC] Computing input variables for policy optimization
[2019-08-27 16:40:29.255437 UTC] Computing policy gradient
[2019-08-27 16:40:29.265439 UTC] Updating baseline
[2019-08-27 16:40:29.368685 UTC] Computing logging information
------------------------------------
| Iteration            | 31        |
| SurrLoss             | -0.010132 |
| Entropy              | 0.36079   |
| Perplexity           | 1.4345    |
| AveragePolicyProb[0] | 0.50762   |
| AveragePolicyProb[1] | 0.49238   |
| AverageReturn        | 200       |
| MinReturn            | 200       |
| MaxReturn            | 200       |
| StdReturn            | 0         |
| AverageEpisodeLength | 200       |
| MinEpisodeLength     | 200       |
| MaxEpisodeLength     | 200       |
| StdEpisodeLength     | 0         |
| TotalNEpisodes       | 456       |
| TotalNSamples        | 62547     |
| ExplainedVariance    | 0.48964   |
------------------------------------
[2019-08-27 16:40:30.282629 UTC] Saving snapshot
[2019-08-27 16:40:30.301416 UTC] Starting iteration 32
[2019-08-27 16:40:30.302259 UTC] Start collecting samples
[2019-08-27 16:40:30.617907 UTC] Computing input variables for policy optimization
[2019-08-27 16:40:30.636866 UTC] Computing policy gradient
[2019-08-27 16:40:30.647702 UTC] Updating baseline
[2019-08-27 16:40:30.740655 UTC] Computing logging information
------------------------------------
| Iteration            | 32        |
| SurrLoss             | -0.014726 |
| Entropy              | 0.34342   |
| Perplexity           | 1.4098    |
| AveragePolicyProb[0] | 0.49894   |
| AveragePolicyProb[1] | 0.50106   |
| AverageReturn        | 200       |
| MinReturn            | 200       |
| MaxReturn            | 200       |
| StdReturn            | 0         |
| AverageEpisodeLength | 200       |
| MinEpisodeLength     | 200       |
| MaxEpisodeLength     | 200       |
| StdEpisodeLength     | 0         |
| TotalNEpisodes       | 466       |
| TotalNSamples        | 64547     |
| ExplainedVariance    | 0.19804   |
------------------------------------
[2019-08-27 16:40:31.900335 UTC] Saving snapshot
[2019-08-27 16:40:31.926141 UTC] Starting iteration 33
[2019-08-27 16:40:31.926948 UTC] Start collecting samples
[2019-08-27 16:40:32.425792 UTC] Computing input variables for policy optimization
[2019-08-27 16:40:32.444710 UTC] Computing policy gradient
[2019-08-27 16:40:32.454244 UTC] Updating baseline
[2019-08-27 16:40:32.554798 UTC] Computing logging information
-------------------------------------
| Iteration            | 33         |
| SurrLoss             | -0.0013353 |
| Entropy              | 0.33548    |
| Perplexity           | 1.3986     |
| AveragePolicyProb[0] | 0.50786    |
| AveragePolicyProb[1] | 0.49214    |
| AverageReturn        | 200        |
| MinReturn            | 200        |
| MaxReturn            | 200        |
| StdReturn            | 0          |
| AverageEpisodeLength | 200        |
| MinEpisodeLength     | 200        |
| MaxEpisodeLength     | 200        |
| StdEpisodeLength     | 0          |
| TotalNEpisodes       | 475        |
| TotalNSamples        | 66347      |
| ExplainedVariance    | -0.073594  |
-------------------------------------
[2019-08-27 16:40:33.441711 UTC] Saving snapshot
[2019-08-27 16:40:33.454169 UTC] Starting iteration 34
[2019-08-27 16:40:33.454708 UTC] Start collecting samples
[2019-08-27 16:40:33.846961 UTC] Computing input variables for policy optimization
[2019-08-27 16:40:33.868429 UTC] Computing policy gradient
[2019-08-27 16:40:33.879334 UTC] Updating baseline
[2019-08-27 16:40:34.005619 UTC] Computing logging information
-------------------------------------
| Iteration            | 34         |
| SurrLoss             | -0.0036424 |
| Entropy              | 0.33011    |
| Perplexity           | 1.3911     |
| AveragePolicyProb[0] | 0.50497    |
| AveragePolicyProb[1] | 0.49503    |
| AverageReturn        | 200        |
| MinReturn            | 200        |
| MaxReturn            | 200        |
| StdReturn            | 0          |
| AverageEpisodeLength | 200        |
| MinEpisodeLength     | 200        |
| MaxEpisodeLength     | 200        |
| StdEpisodeLength     | 0          |
| TotalNEpisodes       | 486        |
| TotalNSamples        | 68547      |
| ExplainedVariance    | -0.092669  |
-------------------------------------
[2019-08-27 16:40:35.038839 UTC] Saving snapshot
[2019-08-27 16:40:35.052046 UTC] Starting iteration 35
[2019-08-27 16:40:35.052826 UTC] Start collecting samples
[2019-08-27 16:40:35.346244 UTC] Computing input variables for policy optimization
[2019-08-27 16:40:35.363070 UTC] Computing policy gradient
[2019-08-27 16:40:35.371935 UTC] Updating baseline
[2019-08-27 16:40:35.473988 UTC] Computing logging information
------------------------------------
| Iteration            | 35        |
| SurrLoss             | 0.0089568 |
| Entropy              | 0.32766   |
| Perplexity           | 1.3877    |
| AveragePolicyProb[0] | 0.49861   |
| AveragePolicyProb[1] | 0.50139   |
| AverageReturn        | 200       |
| MinReturn            | 200       |
| MaxReturn            | 200       |
| StdReturn            | 0         |
| AverageEpisodeLength | 200       |
| MinEpisodeLength     | 200       |
| MaxEpisodeLength     | 200       |
| StdEpisodeLength     | 0         |
| TotalNEpisodes       | 494       |
| TotalNSamples        | 70147     |
| ExplainedVariance    | -0.10547  |
------------------------------------
[2019-08-27 16:40:36.566647 UTC] Saving snapshot
[2019-08-27 16:40:36.584027 UTC] Starting iteration 36
[2019-08-27 16:40:36.584764 UTC] Start collecting samples
[2019-08-27 16:40:37.014029 UTC] Computing input variables for policy optimization
[2019-08-27 16:40:37.034753 UTC] Computing policy gradient
[2019-08-27 16:40:37.048262 UTC] Updating baseline
[2019-08-27 16:40:37.167794 UTC] Computing logging information
-----------------------------------
| Iteration            | 36       |
| SurrLoss             | 0.011626 |
| Entropy              | 0.32122  |
| Perplexity           | 1.3788   |
| AveragePolicyProb[0] | 0.50911  |
| AveragePolicyProb[1] | 0.49089  |
| AverageReturn        | 200      |
| MinReturn            | 200      |
| MaxReturn            | 200      |
| StdReturn            | 0        |
| AverageEpisodeLength | 200      |
| MinEpisodeLength     | 200      |
| MaxEpisodeLength     | 200      |
| StdEpisodeLength     | 0        |
| TotalNEpisodes       | 506      |
| TotalNSamples        | 72547    |
| ExplainedVariance    | 0.059773 |
-----------------------------------
[2019-08-27 16:40:38.242501 UTC] Saving snapshot
[2019-08-27 16:40:38.257065 UTC] Starting iteration 37
[2019-08-27 16:40:38.257817 UTC] Start collecting samples
[2019-08-27 16:40:38.606786 UTC] Computing input variables for policy optimization
[2019-08-27 16:40:38.626529 UTC] Computing policy gradient
[2019-08-27 16:40:38.636029 UTC] Updating baseline
[2019-08-27 16:40:38.737143 UTC] Computing logging information
--------------------------------------
| Iteration            | 37          |
| SurrLoss             | -0.00020168 |
| Entropy              | 0.31587     |
| Perplexity           | 1.3715      |
| AveragePolicyProb[0] | 0.48099     |
| AveragePolicyProb[1] | 0.51901     |
| AverageReturn        | 200         |
| MinReturn            | 200         |
| MaxReturn            | 200         |
| StdReturn            | 0           |
| AverageEpisodeLength | 200         |
| MinEpisodeLength     | 200         |
| MaxEpisodeLength     | 200         |
| StdEpisodeLength     | 0           |
| TotalNEpisodes       | 516         |
| TotalNSamples        | 74547       |
| ExplainedVariance    | 0.34684     |
--------------------------------------
[2019-08-27 16:40:39.851741 UTC] Saving snapshot
[2019-08-27 16:40:39.866860 UTC] Starting iteration 38
[2019-08-27 16:40:39.867429 UTC] Start collecting samples
[2019-08-27 16:40:40.196457 UTC] Computing input variables for policy optimization
[2019-08-27 16:40:40.215440 UTC] Computing policy gradient
[2019-08-27 16:40:40.226315 UTC] Updating baseline
[2019-08-27 16:40:40.325810 UTC] Computing logging information
-------------------------------------
| Iteration            | 38         |
| SurrLoss             | -0.0013121 |
| Entropy              | 0.31587    |
| Perplexity           | 1.3715     |
| AveragePolicyProb[0] | 0.50385    |
| AveragePolicyProb[1] | 0.49615    |
| AverageReturn        | 200        |
| MinReturn            | 200        |
| MaxReturn            | 200        |
| StdReturn            | 0          |
| AverageEpisodeLength | 200        |
| MinEpisodeLength     | 200        |
| MaxEpisodeLength     | 200        |
| StdEpisodeLength     | 0          |
| TotalNEpisodes       | 523        |
| TotalNSamples        | 75947      |
| ExplainedVariance    | 0.40894    |
-------------------------------------
[2019-08-27 16:40:41.435617 UTC] Saving snapshot
[2019-08-27 16:40:41.449352 UTC] Starting iteration 39
[2019-08-27 16:40:41.450065 UTC] Start collecting samples
[2019-08-27 16:40:41.818264 UTC] Computing input variables for policy optimization
[2019-08-27 16:40:41.838844 UTC] Computing policy gradient
[2019-08-27 16:40:41.847788 UTC] Updating baseline
[2019-08-27 16:40:41.957542 UTC] Computing logging information
------------------------------------
| Iteration            | 39        |
| SurrLoss             | 0.0071663 |
| Entropy              | 0.30822   |
| Perplexity           | 1.361     |
| AveragePolicyProb[0] | 0.49811   |
| AveragePolicyProb[1] | 0.50189   |
| AverageReturn        | 200       |
| MinReturn            | 200       |
| MaxReturn            | 200       |
| StdReturn            | 0         |
| AverageEpisodeLength | 200       |
| MinEpisodeLength     | 200       |
| MaxEpisodeLength     | 200       |
| StdEpisodeLength     | 0         |
| TotalNEpisodes       | 536       |
| TotalNSamples        | 78547     |
| ExplainedVariance    | 0.66646   |
------------------------------------
[2019-08-27 16:40:42.723879 UTC] Saving snapshot
[2019-08-27 16:40:42.736494 UTC] Starting iteration 40
[2019-08-27 16:40:42.737233 UTC] Start collecting samples
[2019-08-27 16:40:43.062045 UTC] Computing input variables for policy optimization
[2019-08-27 16:40:43.079900 UTC] Computing policy gradient
[2019-08-27 16:40:43.089133 UTC] Updating baseline
[2019-08-27 16:40:43.178114 UTC] Computing logging information
------------------------------------
| Iteration            | 40        |
| SurrLoss             | -0.030162 |
| Entropy              | 0.30411   |
| Perplexity           | 1.3554    |
| AveragePolicyProb[0] | 0.49737   |
| AveragePolicyProb[1] | 0.50263   |
| AverageReturn        | 200       |
| MinReturn            | 200       |
| MaxReturn            | 200       |
| StdReturn            | 0         |
| AverageEpisodeLength | 200       |
| MinEpisodeLength     | 200       |
| MaxEpisodeLength     | 200       |
| StdEpisodeLength     | 0         |
| TotalNEpisodes       | 546       |
| TotalNSamples        | 80547     |
| ExplainedVariance    | 0.68225   |
------------------------------------
[2019-08-27 16:40:44.241127 UTC] Saving snapshot
[2019-08-27 16:40:44.254644 UTC] Starting iteration 41
[2019-08-27 16:40:44.255410 UTC] Start collecting samples
[2019-08-27 16:40:44.548904 UTC] Computing input variables for policy optimization
[2019-08-27 16:40:44.567074 UTC] Computing policy gradient
[2019-08-27 16:40:44.576041 UTC] Updating baseline
[2019-08-27 16:40:44.714760 UTC] Computing logging information
-------------------------------------
| Iteration            | 41         |
| SurrLoss             | -0.0049045 |
| Entropy              | 0.28288    |
| Perplexity           | 1.327      |
| AveragePolicyProb[0] | 0.50398    |
| AveragePolicyProb[1] | 0.49602    |
| AverageReturn        | 200        |
| MinReturn            | 200        |
| MaxReturn            | 200        |
| StdReturn            | 0          |
| AverageEpisodeLength | 200        |
| MinEpisodeLength     | 200        |
| MaxEpisodeLength     | 200        |
| StdEpisodeLength     | 0          |
| TotalNEpisodes       | 555        |
| TotalNSamples        | 82347      |
| ExplainedVariance    | 0.75091    |
-------------------------------------
[2019-08-27 16:40:45.937399 UTC] Saving snapshot
[2019-08-27 16:40:45.950411 UTC] Starting iteration 42
[2019-08-27 16:40:45.951260 UTC] Start collecting samples
[2019-08-27 16:40:46.268873 UTC] Computing input variables for policy optimization
[2019-08-27 16:40:46.286371 UTC] Computing policy gradient
[2019-08-27 16:40:46.295244 UTC] Updating baseline
[2019-08-27 16:40:46.374878 UTC] Computing logging information
------------------------------------
| Iteration            | 42        |
| SurrLoss             | -0.027786 |
| Entropy              | 0.27214   |
| Perplexity           | 1.3128    |
| AveragePolicyProb[0] | 0.50192   |
| AveragePolicyProb[1] | 0.49808   |
| AverageReturn        | 200       |
| MinReturn            | 200       |
| MaxReturn            | 200       |
| StdReturn            | 0         |
| AverageEpisodeLength | 200       |
| MinEpisodeLength     | 200       |
| MaxEpisodeLength     | 200       |
| StdEpisodeLength     | 0         |
| TotalNEpisodes       | 566       |
| TotalNSamples        | 84547     |
| ExplainedVariance    | 0.72345   |
------------------------------------
[2019-08-27 16:40:47.380384 UTC] Saving snapshot
[2019-08-27 16:40:47.393228 UTC] Starting iteration 43
[2019-08-27 16:40:47.394074 UTC] Start collecting samples
[2019-08-27 16:40:47.681674 UTC] Computing input variables for policy optimization
[2019-08-27 16:40:47.699937 UTC] Computing policy gradient
[2019-08-27 16:40:47.709021 UTC] Updating baseline
[2019-08-27 16:40:47.813583 UTC] Computing logging information
-------------------------------------
| Iteration            | 43         |
| SurrLoss             | -0.0074525 |
| Entropy              | 0.25524    |
| Perplexity           | 1.2908     |
| AveragePolicyProb[0] | 0.51533    |
| AveragePolicyProb[1] | 0.48467    |
| AverageReturn        | 200        |
| MinReturn            | 200        |
| MaxReturn            | 200        |
| StdReturn            | 0          |
| AverageEpisodeLength | 200        |
| MinEpisodeLength     | 200        |
| MaxEpisodeLength     | 200        |
| StdEpisodeLength     | 0          |
| TotalNEpisodes       | 574        |
| TotalNSamples        | 86147      |
| ExplainedVariance    | 0.70748    |
-------------------------------------
[2019-08-27 16:40:48.792288 UTC] Saving snapshot
[2019-08-27 16:40:48.807149 UTC] Starting iteration 44
[2019-08-27 16:40:48.807860 UTC] Start collecting samples
[2019-08-27 16:40:49.224883 UTC] Computing input variables for policy optimization
[2019-08-27 16:40:49.267280 UTC] Computing policy gradient
[2019-08-27 16:40:49.276869 UTC] Updating baseline
[2019-08-27 16:40:49.367547 UTC] Computing logging information
-------------------------------------
| Iteration            | 44         |
| SurrLoss             | -0.0053019 |
| Entropy              | 0.25475    |
| Perplexity           | 1.2901     |
| AveragePolicyProb[0] | 0.49169    |
| AveragePolicyProb[1] | 0.50831    |
| AverageReturn        | 200        |
| MinReturn            | 200        |
| MaxReturn            | 200        |
| StdReturn            | 0          |
| AverageEpisodeLength | 200        |
| MinEpisodeLength     | 200        |
| MaxEpisodeLength     | 200        |
| StdEpisodeLength     | 0          |
| TotalNEpisodes       | 586        |
| TotalNSamples        | 88547      |
| ExplainedVariance    | 0.76859    |
-------------------------------------
[2019-08-27 16:40:50.306093 UTC] Saving snapshot
[2019-08-27 16:40:50.319631 UTC] Starting iteration 45
[2019-08-27 16:40:50.320406 UTC] Start collecting samples
[2019-08-27 16:40:50.698967 UTC] Computing input variables for policy optimization
[2019-08-27 16:40:50.719523 UTC] Computing policy gradient
[2019-08-27 16:40:50.729020 UTC] Updating baseline
[2019-08-27 16:40:50.840885 UTC] Computing logging information
------------------------------------
| Iteration            | 45        |
| SurrLoss             | 0.0067177 |
| Entropy              | 0.24053   |
| Perplexity           | 1.2719    |
| AveragePolicyProb[0] | 0.48624   |
| AveragePolicyProb[1] | 0.51376   |
| AverageReturn        | 200       |
| MinReturn            | 200       |
| MaxReturn            | 200       |
| StdReturn            | 0         |
| AverageEpisodeLength | 200       |
| MinEpisodeLength     | 200       |
| MaxEpisodeLength     | 200       |
| StdEpisodeLength     | 0         |
| TotalNEpisodes       | 596       |
| TotalNSamples        | 90547     |
| ExplainedVariance    | 0.5881    |
------------------------------------
[2019-08-27 16:40:51.828056 UTC] Saving snapshot
[2019-08-27 16:40:51.842566 UTC] Starting iteration 46
[2019-08-27 16:40:51.843702 UTC] Start collecting samples
[2019-08-27 16:40:52.146125 UTC] Computing input variables for policy optimization
[2019-08-27 16:40:52.163408 UTC] Computing policy gradient
[2019-08-27 16:40:52.173657 UTC] Updating baseline
[2019-08-27 16:40:52.264657 UTC] Computing logging information
-----------------------------------
| Iteration            | 46       |
| SurrLoss             | 0.011627 |
| Entropy              | 0.22649  |
| Perplexity           | 1.2542   |
| AveragePolicyProb[0] | 0.49282  |
| AveragePolicyProb[1] | 0.50718  |
| AverageReturn        | 200      |
| MinReturn            | 200      |
| MaxReturn            | 200      |
| StdReturn            | 0        |
| AverageEpisodeLength | 200      |
| MinEpisodeLength     | 200      |
| MaxEpisodeLength     | 200      |
| StdEpisodeLength     | 0        |
| TotalNEpisodes       | 603      |
| TotalNSamples        | 91947    |
| ExplainedVariance    | 0.5718   |
-----------------------------------
[2019-08-27 16:40:53.231136 UTC] Saving snapshot
[2019-08-27 16:40:53.245950 UTC] Starting iteration 47
[2019-08-27 16:40:53.246797 UTC] Start collecting samples
[2019-08-27 16:40:53.632236 UTC] Computing input variables for policy optimization
[2019-08-27 16:40:53.653328 UTC] Computing policy gradient
[2019-08-27 16:40:53.662454 UTC] Updating baseline
[2019-08-27 16:40:53.785999 UTC] Computing logging information
------------------------------------
| Iteration            | 47        |
| SurrLoss             | -0.014987 |
| Entropy              | 0.22998   |
| Perplexity           | 1.2586    |
| AveragePolicyProb[0] | 0.50501   |
| AveragePolicyProb[1] | 0.49499   |
| AverageReturn        | 200       |
| MinReturn            | 200       |
| MaxReturn            | 200       |
| StdReturn            | 0         |
| AverageEpisodeLength | 200       |
| MinEpisodeLength     | 200       |
| MaxEpisodeLength     | 200       |
| StdEpisodeLength     | 0         |
| TotalNEpisodes       | 616       |
| TotalNSamples        | 94547     |
| ExplainedVariance    | 0.54344   |
------------------------------------
[2019-08-27 16:40:55.016190 UTC] Saving snapshot
[2019-08-27 16:40:55.031856 UTC] Starting iteration 48
[2019-08-27 16:40:55.032486 UTC] Start collecting samples
[2019-08-27 16:40:55.409092 UTC] Computing input variables for policy optimization
[2019-08-27 16:40:55.428739 UTC] Computing policy gradient
[2019-08-27 16:40:55.439761 UTC] Updating baseline
[2019-08-27 16:40:55.542209 UTC] Computing logging information
------------------------------------
| Iteration            | 48        |
| SurrLoss             | -0.010523 |
| Entropy              | 0.21409   |
| Perplexity           | 1.2387    |
| AveragePolicyProb[0] | 0.50479   |
| AveragePolicyProb[1] | 0.49521   |
| AverageReturn        | 200       |
| MinReturn            | 200       |
| MaxReturn            | 200       |
| StdReturn            | 0         |
| AverageEpisodeLength | 200       |
| MinEpisodeLength     | 200       |
| MaxEpisodeLength     | 200       |
| StdEpisodeLength     | 0         |
| TotalNEpisodes       | 626       |
| TotalNSamples        | 96547     |
| ExplainedVariance    | 0.32926   |
------------------------------------
[2019-08-27 16:40:56.773643 UTC] Saving snapshot
[2019-08-27 16:40:56.790319 UTC] Starting iteration 49
[2019-08-27 16:40:56.791223 UTC] Start collecting samples
[2019-08-27 16:40:57.182891 UTC] Computing input variables for policy optimization
[2019-08-27 16:40:57.201853 UTC] Computing policy gradient
[2019-08-27 16:40:57.211811 UTC] Updating baseline
[2019-08-27 16:40:57.308350 UTC] Computing logging information
-------------------------------------
| Iteration            | 49         |
| SurrLoss             | -0.0086425 |
| Entropy              | 0.2175     |
| Perplexity           | 1.243      |
| AveragePolicyProb[0] | 0.50145    |
| AveragePolicyProb[1] | 0.49855    |
| AverageReturn        | 200        |
| MinReturn            | 200        |
| MaxReturn            | 200        |
| StdReturn            | 0          |
| AverageEpisodeLength | 200        |
| MinEpisodeLength     | 200        |
| MaxEpisodeLength     | 200        |
| StdEpisodeLength     | 0          |
| TotalNEpisodes       | 635        |
| TotalNSamples        | 98347      |
| ExplainedVariance    | 0.19901    |
-------------------------------------
[2019-08-27 16:40:58.618720 UTC] Saving snapshot
[2019-08-27 16:40:58.637269 UTC] Starting iteration 50
[2019-08-27 16:40:58.638304 UTC] Start collecting samples
[2019-08-27 16:40:59.037000 UTC] Computing input variables for policy optimization
[2019-08-27 16:40:59.056341 UTC] Computing policy gradient
[2019-08-27 16:40:59.066782 UTC] Updating baseline
[2019-08-27 16:40:59.206606 UTC] Computing logging information
--------------------------------------
| Iteration            | 50          |
| SurrLoss             | -0.00082997 |
| Entropy              | 0.22105     |
| Perplexity           | 1.2474      |
| AveragePolicyProb[0] | 0.49701     |
| AveragePolicyProb[1] | 0.50299     |
| AverageReturn        | 199.76      |
| MinReturn            | 176         |
| MaxReturn            | 200         |
| StdReturn            | 2.388       |
| AverageEpisodeLength | 199.76      |
| MinEpisodeLength     | 176         |
| MaxEpisodeLength     | 200         |
| StdEpisodeLength     | 2.388       |
| TotalNEpisodes       | 646         |
| TotalNSamples        | 1.0052e+05  |
| ExplainedVariance    | -0.0023858  |
--------------------------------------
[2019-08-27 16:41:00.349070 UTC] Saving snapshot
[2019-08-27 16:41:00.364735 UTC] Starting iteration 51
[2019-08-27 16:41:00.365324 UTC] Start collecting samples
[2019-08-27 16:41:00.706409 UTC] Computing input variables for policy optimization
[2019-08-27 16:41:00.730184 UTC] Computing policy gradient
[2019-08-27 16:41:00.743412 UTC] Updating baseline
[2019-08-27 16:41:00.864906 UTC] Computing logging information
-------------------------------------
| Iteration            | 51         |
| SurrLoss             | -0.011369  |
| Entropy              | 0.22619    |
| Perplexity           | 1.2538     |
| AveragePolicyProb[0] | 0.48775    |
| AveragePolicyProb[1] | 0.51225    |
| AverageReturn        | 199.76     |
| MinReturn            | 176        |
| MaxReturn            | 200        |
| StdReturn            | 2.388      |
| AverageEpisodeLength | 199.76     |
| MinEpisodeLength     | 176        |
| MaxEpisodeLength     | 200        |
| StdEpisodeLength     | 2.388      |
| TotalNEpisodes       | 654        |
| TotalNSamples        | 1.0212e+05 |
| ExplainedVariance    | -0.011362  |
-------------------------------------
[2019-08-27 16:41:01.741293 UTC] Saving snapshot
[2019-08-27 16:41:01.756726 UTC] Starting iteration 52
[2019-08-27 16:41:01.757521 UTC] Start collecting samples
[2019-08-27 16:41:02.151437 UTC] Computing input variables for policy optimization
[2019-08-27 16:41:02.173929 UTC] Computing policy gradient
[2019-08-27 16:41:02.187393 UTC] Updating baseline
[2019-08-27 16:41:02.340523 UTC] Computing logging information
-------------------------------------
| Iteration            | 52         |
| SurrLoss             | 0.0023908  |
| Entropy              | 0.23333    |
| Perplexity           | 1.2628     |
| AveragePolicyProb[0] | 0.50232    |
| AveragePolicyProb[1] | 0.49768    |
| AverageReturn        | 199.76     |
| MinReturn            | 176        |
| MaxReturn            | 200        |
| StdReturn            | 2.388      |
| AverageEpisodeLength | 199.76     |
| MinEpisodeLength     | 176        |
| MaxEpisodeLength     | 200        |
| StdEpisodeLength     | 2.388      |
| TotalNEpisodes       | 666        |
| TotalNSamples        | 1.0452e+05 |
| ExplainedVariance    | 0.14283    |
-------------------------------------
[2019-08-27 16:41:03.344160 UTC] Saving snapshot
[2019-08-27 16:41:03.359560 UTC] Starting iteration 53
[2019-08-27 16:41:03.360298 UTC] Start collecting samples
[2019-08-27 16:41:03.697317 UTC] Computing input variables for policy optimization
[2019-08-27 16:41:03.723543 UTC] Computing policy gradient
[2019-08-27 16:41:03.738440 UTC] Updating baseline
[2019-08-27 16:41:03.852452 UTC] Computing logging information
-------------------------------------
| Iteration            | 53         |
| SurrLoss             | -0.016679  |
| Entropy              | 0.24219    |
| Perplexity           | 1.274      |
| AveragePolicyProb[0] | 0.50341    |
| AveragePolicyProb[1] | 0.49659    |
| AverageReturn        | 199.76     |
| MinReturn            | 176        |
| MaxReturn            | 200        |
| StdReturn            | 2.388      |
| AverageEpisodeLength | 199.76     |
| MinEpisodeLength     | 176        |
| MaxEpisodeLength     | 200        |
| StdEpisodeLength     | 2.388      |
| TotalNEpisodes       | 676        |
| TotalNSamples        | 1.0652e+05 |
| ExplainedVariance    | 0.24694    |
-------------------------------------
[2019-08-27 16:41:04.680379 UTC] Saving snapshot
[2019-08-27 16:41:04.694370 UTC] Starting iteration 54
[2019-08-27 16:41:04.695304 UTC] Start collecting samples
[2019-08-27 16:41:05.008206 UTC] Computing input variables for policy optimization
[2019-08-27 16:41:05.026116 UTC] Computing policy gradient
[2019-08-27 16:41:05.039829 UTC] Updating baseline
[2019-08-27 16:41:05.171532 UTC] Computing logging information
-------------------------------------
| Iteration            | 54         |
| SurrLoss             | 0.0033551  |
| Entropy              | 0.2451     |
| Perplexity           | 1.2777     |
| AveragePolicyProb[0] | 0.48315    |
| AveragePolicyProb[1] | 0.51685    |
| AverageReturn        | 199.76     |
| MinReturn            | 176        |
| MaxReturn            | 200        |
| StdReturn            | 2.388      |
| AverageEpisodeLength | 199.76     |
| MinEpisodeLength     | 176        |
| MaxEpisodeLength     | 200        |
| StdEpisodeLength     | 2.388      |
| TotalNEpisodes       | 684        |
| TotalNSamples        | 1.0812e+05 |
| ExplainedVariance    | 0.062209   |
-------------------------------------
[2019-08-27 16:41:06.192569 UTC] Saving snapshot
[2019-08-27 16:41:06.208271 UTC] Starting iteration 55
[2019-08-27 16:41:06.209031 UTC] Start collecting samples
[2019-08-27 16:41:06.558835 UTC] Computing input variables for policy optimization
[2019-08-27 16:41:06.582392 UTC] Computing policy gradient
[2019-08-27 16:41:06.591857 UTC] Updating baseline
[2019-08-27 16:41:06.679891 UTC] Computing logging information
-------------------------------------
| Iteration            | 55         |
| SurrLoss             | -0.0052999 |
| Entropy              | 0.25489    |
| Perplexity           | 1.2903     |
| AveragePolicyProb[0] | 0.50411    |
| AveragePolicyProb[1] | 0.49589    |
| AverageReturn        | 199.76     |
| MinReturn            | 176        |
| MaxReturn            | 200        |
| StdReturn            | 2.388      |
| AverageEpisodeLength | 199.76     |
| MinEpisodeLength     | 176        |
| MaxEpisodeLength     | 200        |
| StdEpisodeLength     | 2.388      |
| TotalNEpisodes       | 696        |
| TotalNSamples        | 1.1052e+05 |
| ExplainedVariance    | 0.49056    |
-------------------------------------
[2019-08-27 16:41:07.791811 UTC] Saving snapshot
[2019-08-27 16:41:07.831587 UTC] Starting iteration 56
[2019-08-27 16:41:07.832479 UTC] Start collecting samples
[2019-08-27 16:41:08.181757 UTC] Computing input variables for policy optimization
[2019-08-27 16:41:08.202849 UTC] Computing policy gradient
[2019-08-27 16:41:08.212912 UTC] Updating baseline
[2019-08-27 16:41:08.319085 UTC] Computing logging information
-------------------------------------
| Iteration            | 56         |
| SurrLoss             | 0.018437   |
| Entropy              | 0.28041    |
| Perplexity           | 1.3237     |
| AveragePolicyProb[0] | 0.49425    |
| AveragePolicyProb[1] | 0.50575    |
| AverageReturn        | 199.71     |
| MinReturn            | 176        |
| MaxReturn            | 200        |
| StdReturn            | 2.4343     |
| AverageEpisodeLength | 199.71     |
| MinEpisodeLength     | 176        |
| MaxEpisodeLength     | 200        |
| StdEpisodeLength     | 2.4343     |
| TotalNEpisodes       | 706        |
| TotalNSamples        | 1.1252e+05 |
| ExplainedVariance    | 0.34203    |
-------------------------------------
[2019-08-27 16:41:09.700332 UTC] Saving snapshot
[2019-08-27 16:41:09.713477 UTC] Starting iteration 57
[2019-08-27 16:41:09.714053 UTC] Start collecting samples
[2019-08-27 16:41:10.012340 UTC] Computing input variables for policy optimization
[2019-08-27 16:41:10.030355 UTC] Computing policy gradient
[2019-08-27 16:41:10.039305 UTC] Updating baseline
[2019-08-27 16:41:10.123796 UTC] Computing logging information
--------------------------------------
| Iteration            | 57          |
| SurrLoss             | -0.00083976 |
| Entropy              | 0.29841     |
| Perplexity           | 1.3477      |
| AveragePolicyProb[0] | 0.50866     |
| AveragePolicyProb[1] | 0.49134     |
| AverageReturn        | 199.71      |
| MinReturn            | 176         |
| MaxReturn            | 200         |
| StdReturn            | 2.4343      |
| AverageEpisodeLength | 199.71      |
| MinEpisodeLength     | 176         |
| MaxEpisodeLength     | 200         |
| StdEpisodeLength     | 2.4343      |
| TotalNEpisodes       | 715         |
| TotalNSamples        | 1.1432e+05  |
| ExplainedVariance    | 0.40076     |
--------------------------------------
[2019-08-27 16:41:11.141767 UTC] Saving snapshot
[2019-08-27 16:41:11.154656 UTC] Starting iteration 58
[2019-08-27 16:41:11.155104 UTC] Start collecting samples
[2019-08-27 16:41:11.468818 UTC] Computing input variables for policy optimization
[2019-08-27 16:41:11.486180 UTC] Computing policy gradient
[2019-08-27 16:41:11.493986 UTC] Updating baseline
[2019-08-27 16:41:11.582137 UTC] Computing logging information
-------------------------------------
| Iteration            | 58         |
| SurrLoss             | -0.0063144 |
| Entropy              | 0.31231    |
| Perplexity           | 1.3666     |
| AveragePolicyProb[0] | 0.50641    |
| AveragePolicyProb[1] | 0.49359    |
| AverageReturn        | 198.73     |
| MinReturn            | 102        |
| MaxReturn            | 200        |
| StdReturn            | 10.022     |
| AverageEpisodeLength | 198.73     |
| MinEpisodeLength     | 102        |
| MaxEpisodeLength     | 200        |
| StdEpisodeLength     | 10.022     |
| TotalNEpisodes       | 726        |
| TotalNSamples        | 1.1642e+05 |
| ExplainedVariance    | 0.62518    |
-------------------------------------
[2019-08-27 16:41:12.447750 UTC] Saving snapshot
[2019-08-27 16:41:12.463189 UTC] Starting iteration 59
[2019-08-27 16:41:12.463805 UTC] Start collecting samples
[2019-08-27 16:41:12.843682 UTC] Computing input variables for policy optimization
[2019-08-27 16:41:12.864583 UTC] Computing policy gradient
[2019-08-27 16:41:12.873860 UTC] Updating baseline
[2019-08-27 16:41:12.993880 UTC] Computing logging information
